<?xml version="1.0" encoding="utf-8"?>
<!-- Generator: Adobe Illustrator 21.0.0, SVG Export Plug-In . SVG Version: 6.00 Build 0)  -->
<svg version="1.1" id="Camada_1" xmlns="http://www.w3.org/2000/svg" xmlns:xlink="http://www.w3.org/1999/xlink" x="0px" y="0px"
	 viewBox="0 0 213 213" style="enable-background:new 0 0 213 213;" xml:space="preserve">
<style type="text/css">
	.st0{fill:#A50112;}
</style>
<g id="Page-1_1_">
	<g id="_x30_34---Give-Rental-Car">
		<path id="Shape_10_" class="st0" d="M180.7,96.7V82.9c0-4.4-3.6-8-8-8H169L160.5,58c-1.4-2.7-4.1-4.4-7.2-4.4H112
			c-3,0-5.8,1.7-7.2,4.4l-8.5,16.9H82c-4.4,0-8,3.6-8,8v13.8c-3.2,1.1-5.3,4.1-5.3,7.5c0,4.4,3.6,8,8,8h8.6
			c1.8,6.3,7.6,10.7,14.1,10.7s12.3-4.3,14.1-10.7h30.5c1.8,6.3,7.6,10.7,14.1,10.7c6.6,0,12.3-4.3,14.1-10.7h5.9c4.4,0,8-3.6,8-8
			C186,100.8,183.9,97.8,180.7,96.7z M175.3,82.9v13.3h-8.9c-5-3.6-11.8-3.6-16.8,0h-14.3v-8c0-1.5-1.2-2.7-2.7-2.7
			c-1.5,0-2.7,1.2-2.7,2.7v8h-22.3c-5-3.6-11.8-3.6-16.8,0H79.3v-5.3h5.3c4.4,0,8-3.6,8-8v-2.7h80C174.1,80.2,175.3,81.4,175.3,82.9
			z M112.4,101.6H145c-0.9,1.6-1.5,3.5-1.6,5.3H114C113.8,105,113.3,103.2,112.4,101.6z M155.8,60.4l7.3,14.5h-27.7v-16l18,0
			C154.4,58.9,155.3,59.4,155.8,60.4L155.8,60.4z M109.6,60.4c0.5-0.9,1.4-1.5,2.4-1.5l18,0v16h-27.7L109.6,60.4z M82,80.2h5.3v2.7
			c0,1.5-1.2,2.7-2.7,2.7h-5.3v-2.7C79.3,81.4,80.5,80.2,82,80.2z M74,104.2c0-0.7,0.3-1.4,0.8-1.9c0.5-0.5,1.1-0.8,1.8-0.8h9.6
			c-0.9,1.6-1.5,3.5-1.6,5.3h-8C75.2,106.9,74,105.7,74,104.2z M99.3,117.6c-3.8,0-7.2-2.3-8.6-5.8s-0.6-7.5,2-10.2
			c2.7-2.7,6.7-3.5,10.2-2c3.5,1.4,5.8,4.8,5.8,8.6C108.7,113.4,104.5,117.6,99.3,117.6L99.3,117.6z M158,117.6
			c-5.2,0-9.3-4.2-9.3-9.3c0-5.2,4.2-9.3,9.3-9.3c5.2,0,9.3,4.2,9.3,9.3C167.3,113.4,163.2,117.6,158,117.6z M179.8,106.1
			c-0.5,0.5-1.1,0.8-1.8,0.8h-5.3c-0.2-1.9-0.7-3.7-1.5-5.3h6.9c1.5,0,2.7,1.2,2.7,2.7C180.7,104.9,180.4,105.6,179.8,106.1z"/>
		<path id="Shape_9_" class="st0" d="M114,90.9h5.3c1.5,0,2.7-1.2,2.7-2.7c0-1.5-1.2-2.7-2.7-2.7H114c-1.5,0-2.7,1.2-2.7,2.7
			C111.3,89.7,112.5,90.9,114,90.9z"/>
		<path id="Shape_8_" class="st0" d="M143.3,90.9h5.3c1.5,0,2.7-1.2,2.7-2.7c0-1.5-1.2-2.7-2.7-2.7h-5.3c-1.5,0-2.7,1.2-2.7,2.7
			C140.7,89.7,141.9,90.9,143.3,90.9z"/>
		<path id="Shape_7_" class="st0" d="M172.9,132.7l-49.4,16.5c-0.9,0.3-1.8,0.4-2.7,0.4h-1.5c1.3-3.5,0.9-7.3-1-10.5l-0.2-0.4
			c-2.9-4.8-8-7.7-13.6-7.8H90.5c-4.9,0-9.7-1.7-13.5-4.7c-4.8-3.8-10.7-5.9-16.9-5.9h-5.3c-1.1-3.2-4.1-5.3-7.5-5.3H34
			c-4.4,0-8,3.6-8,8v56c0,4.4,3.6,8,8,8h13.3c2.3,0,4.4-1,5.9-2.7h66.9c3.9,0,7.8-1.1,11.1-3.1l50-30.4c2.4-1.5,4.1-3.9,4.6-6.6
			c0.7-3.5-0.5-7.1-3.2-9.4C179.9,132.3,176.2,131.6,172.9,132.7L172.9,132.7z M47.3,181.6H34c-1.5,0-2.7-1.2-2.7-2.7v-56
			c0-1.5,1.2-2.7,2.7-2.7h13.3c1.5,0,2.7,1.2,2.7,2.7v56C50,180.4,48.8,181.6,47.3,181.6z M180.7,143c-0.2,1.3-1,2.4-2.2,3.1
			l-50.1,30.4c-2.5,1.5-5.4,2.3-8.3,2.3l-64.8,0v-53.3h4.8c4.9,0,9.7,1.7,13.5,4.7c4.8,3.8,10.7,5.9,16.9,5.9h13.9
			c3.7,0,7.2,2,9.1,5.2l0.2,0.4c1.5,2.4,1.3,5.5-0.4,7.8H97.3c-5.3,0-10.4,1.6-14.8,4.5l-1.9,1.3c-1.1,0.9-1.3,2.4-0.6,3.5
			c0.8,1.1,2.3,1.5,3.5,0.9l2-1.3c3.5-2.3,7.6-3.6,11.8-3.6H121c1.4,0,2.9-0.2,4.2-0.7l49.4-16.5c1.9-0.6,4,0,5.2,1.7
			C180.6,140.4,180.9,141.8,180.7,143L180.7,143z"/>
		<path id="Shape_6_" class="st0" d="M66,63.7v-6.9c4.9-2.9,8-8.1,8-13.8v-8c0-4.4-3.6-8-8-8H44.7c-4.4,0-8,3.6-8,8v8
			c0,5.7,3.1,11,8,13.8v35c0,1.2,0.4,2.3,1.1,3.2l5.3,7.1c1,1.3,2.6,2.1,4.3,2.1c1.7,0,3.3-0.8,4.3-2.1l5.3-7.1
			c0.7-0.9,1.1-2,1.1-3.2v-5.7c0-1.1-0.4-2.1-1.2-2.8l-3.1-3.1l2.5-2.5c0.8-0.7,1.2-1.8,1.2-2.8s-0.4-2.1-1.2-2.8l-2.5-2.5l3.1-3.1
			C65.6,65.7,66,64.7,66,63.7L66,63.7z M42,34.9c0-1.5,1.2-2.7,2.7-2.7H66c1.5,0,2.7,1.2,2.7,2.7v8c0,5.9-4.8,10.7-10.7,10.7h-5.3
			c-5.9,0-10.7-4.8-10.7-10.7V34.9z M57.1,72.4l2.5,2.5l-2.5,2.5c-0.8,0.7-1.2,1.8-1.2,2.8s0.4,2.1,1.2,2.8l3.6,3.6v5.1l-5.3,7.1
			L50,91.8V58.6c0.9,0.1,1.8,0.2,2.7,0.2H58c0.9,0,1.8-0.1,2.7-0.2v4.5l-3.6,3.6c-0.8,0.7-1.2,1.8-1.2,2.8
			C55.9,70.6,56.3,71.6,57.1,72.4z"/>
		<path id="Shape_5_" class="st0" d="M52.7,42.9H58c1.5,0,2.7-1.2,2.7-2.7s-1.2-2.7-2.7-2.7h-5.3c-1.5,0-2.7,1.2-2.7,2.7
			S51.2,42.9,52.7,42.9z"/>
	</g>
</g>
</svg>
