<?xml version="1.0" encoding="utf-8"?>
<!-- Generator: Adobe Illustrator 21.0.0, SVG Export Plug-In . SVG Version: 6.00 Build 0)  -->
<svg version="1.1" id="Camada_1" xmlns="http://www.w3.org/2000/svg" xmlns:xlink="http://www.w3.org/1999/xlink" x="0px" y="0px"
	 viewBox="0 0 213 213" style="enable-background:new 0 0 213 213;" xml:space="preserve">
<style type="text/css">
	.st0{fill:#A50112;}
</style>
<g>
	<path class="st0" d="M49.1,113.1c0.8,0,1.6-0.3,2.2-0.9c0.6-0.6,0.9-1.4,0.9-2.2c0-0.8-0.3-1.6-0.9-2.2s-1.4-0.9-2.2-0.9
		s-1.6,0.3-2.2,0.9S46,109.2,46,110c0,0.8,0.3,1.6,0.9,2.2C47.5,112.8,48.3,113.1,49.1,113.1z"/>
	<path class="st0" d="M184.4,69.9l-28.6-15.8c-1.5-0.8-3.4-0.3-4.2,1.2s-0.3,3.4,1.2,4.2l26.9,14.9v106.3H166V82.6
		c0-1.7-1.4-3.1-3.1-3.1H49.1c-1.7,0-3.1,1.4-3.1,3.1v14.9c0,1.7,1.4,3.1,3.1,3.1s3.1-1.4,3.1-3.1V85.7h107.5v95h-13.1v-31.3
		c0-3.4-2.8-6.3-6.3-6.3h-12.5V112c0-3.4-2.8-6.3-6.3-6.3H90.4c-3.4,0-6.3,2.8-6.3,6.3v31.3H71.6c-3.4,0-6.3,2.8-6.3,6.3v31.3H52.3
		v-58.2c0-1.7-1.4-3.1-3.1-3.1s-3.1,1.4-3.1,3.1v58.2H32.3V74.5L106,33.7l24.9,13.8c1.5,0.8,3.4,0.3,4.2-1.2s0.3-3.4-1.2-4.2
		l-26.4-14.6c-0.9-0.5-2.1-0.5-3,0L27.6,69.9c-1,0.5-1.6,1.6-1.6,2.7v111.3c0,1.7,1.4,3.1,3.1,3.1h153.8c1.7,0,3.1-1.4,3.1-3.1V72.6
		C186,71.5,185.4,70.4,184.4,69.9z M121.7,149.5h6.3v6.3h-6.3V149.5z M109.1,112v6.3h-6.3V112H109.1z M90.4,112h6.2v9.4
		c0,1.7,1.4,3.1,3.1,3.1h12.5c1.7,0,3.1-1.4,3.1-3.1V112h6.3l0,31.3c0,0,0,0,0,0H90.4V112z M90.4,149.5v6.3h-6.3v-6.3H90.4z
		 M71.6,180.7v-31.3h6.3v9.4c0,1.7,1.4,3.1,3.1,3.1h12.5c1.7,0,3.1-1.4,3.1-3.1v-9.4h6.2l0,31.3c0,0,0,0,0,0H71.6z M109.2,180.7
		v-31.3h6.3v9.4c0,1.7,1.4,3.1,3.1,3.1H131c1.7,0,3.1-1.4,3.1-3.1v-9.4h6.3l0,31.3c0,0,0,0,0,0H109.2z"/>
	<path class="st0" d="M143.4,53.9c0.8,0,1.6-0.3,2.2-0.9c0.6-0.6,0.9-1.4,0.9-2.2c0-0.8-0.3-1.6-0.9-2.2c-0.6-0.6-1.4-0.9-2.2-0.9
		c-0.8,0-1.6,0.3-2.2,0.9s-0.9,1.4-0.9,2.2c0,0.8,0.3,1.6,0.9,2.2C141.7,53.6,142.6,53.9,143.4,53.9z"/>
	<path class="st0" d="M92.9,58.9c0,7.2,5.9,13.1,13.1,13.1s13.1-5.9,13.1-13.1s-5.9-13.1-13.1-13.1S92.9,51.6,92.9,58.9z
		 M112.9,58.9c0,3.8-3.1,6.9-6.9,6.9s-6.9-3.1-6.9-6.9c0-3.8,3.1-6.9,6.9-6.9S112.9,55.1,112.9,58.9z"/>
</g>
</svg>
