<?xml version="1.0" encoding="utf-8"?>
<!-- Generator: Adobe Illustrator 21.0.0, SVG Export Plug-In . SVG Version: 6.00 Build 0)  -->
<svg version="1.1" id="Camada_1" xmlns="http://www.w3.org/2000/svg" xmlns:xlink="http://www.w3.org/1999/xlink" x="0px" y="0px"
	 viewBox="0 0 213 213" style="enable-background:new 0 0 213 213;" xml:space="preserve">
<style type="text/css">
	.st0{fill:#A50112;}
</style>
<g>
	<g>
		<path class="st0" d="M182.7,68.3c2.1-1.7,3.3-4.1,3.3-6.8v-3.3c0-1.9-0.6-3.6-1.7-5.1c-0.7-0.9-1.6-1.7-2.6-2.3
			c-5.3-3.1-14.7-9.8-18.1-19.3c-1-2.7-3.5-4.5-6.4-4.5H76c-1.3,0-2.3,1-2.3,2.3s1,2.3,2.3,2.3h81.3c0.9,0,1.7,0.6,2,1.4
			c3.1,8.6,10.2,15,16,19H36.8c5.7-4,12.9-10.5,16-19c0.3-0.8,1.1-1.4,2-1.4h10.4c1.3,0,2.3-1,2.3-2.3s-1-2.3-2.3-2.3H54.7
			c-2.8,0-5.4,1.8-6.4,4.5c-3.4,9.4-12.8,16.1-18.1,19.2c-1,0.6-1.9,1.4-2.6,2.3c-1.1,1.5-1.7,3.3-1.7,5.1v3.3
			c0,2.7,1.2,5.1,3.3,6.8l3.1,2.4v111.6h-4c-1.3,0-2.3,1-2.3,2.3c0,1.3,1,2.3,2.3,2.3H41c1.3,0,2.3-1,2.3-2.3c0-1.3-1-2.3-2.3-2.3
			h-4V73.6c2.6,0.8,5.6,0.3,7.8-1.5l3.2-2.6c1.5-1.2,3.5-1.2,5,0l3.2,2.6c3.2,2.5,7.6,2.5,10.8,0l3.2-2.6c1.5-1.2,3.5-1.2,4.9,0
			l3.2,2.6c3.2,2.5,7.6,2.5,10.8,0l3.2-2.6c1.5-1.2,3.5-1.2,4.9,0l3.2,2.6c1.6,1.3,3.5,1.9,5.4,1.9c1.9,0,3.8-0.6,5.4-1.9l3.2-2.6
			c1.5-1.2,3.5-1.2,4.9,0l3.2,2.6c3.2,2.5,7.6,2.5,10.8,0l3.2-2.6c1.5-1.2,3.5-1.2,4.9,0l3.2,2.6c3.2,2.5,7.6,2.5,10.8,0l3.2-2.6
			c1.5-1.2,3.5-1.2,4.9,0l3.2,2.6c2.3,1.8,5.2,2.3,7.8,1.5v108.7h-4c-1.3,0-2.3,1-2.3,2.3s1,2.3,2.3,2.3h12.6c1.3,0,2.3-1,2.3-2.3
			c0-1.3-1-2.3-2.3-2.3h-4V70.7L182.7,68.3z M170.1,68.4l-3.2-2.6c-3.2-2.5-7.6-2.5-10.8,0l-3.2,2.6c-1.5,1.2-3.5,1.2-4.9,0
			l-3.2-2.6c-3.2-2.5-7.6-2.5-10.8,0l-3.2,2.6c-1.5,1.2-3.5,1.2-4.9,0l-3.2-2.6c-3.2-2.5-7.6-2.5-10.8,0l-3.2,2.6
			c-1.5,1.2-3.5,1.2-4.9,0l-3.2-2.6c-3.2-2.5-7.6-2.5-10.8,0l-3.2,2.6c-1.5,1.2-3.5,1.2-5,0l-3.2-2.6c-3.2-2.5-7.6-2.5-10.8,0
			l-3.2,2.6c-1.5,1.2-3.5,1.2-4.9,0l-3.2-2.6c-3.2-2.5-7.6-2.5-10.8,0l-3.2,2.6c-1.5,1.2-3.5,1.2-5,0l-4.8-3.8
			c-1-0.8-1.5-1.9-1.5-3.1v-3.3c0-0.5,0.1-1,0.3-1.4h150.1c0.2,0.4,0.3,0.9,0.3,1.4v3.3c0,1.2-0.5,2.3-1.5,3.1l-4.8,3.8
			C173.6,69.6,171.5,69.6,170.1,68.4L170.1,68.4z"/>
		<path class="st0" d="M125.8,136.5c1.3,0,2.3-1,2.3-2.3s-1-2.3-2.3-2.3H47.1v-5.4h31.4c1.3,0,2.3-1,2.3-2.3c0-1.3-1-2.3-2.3-2.3
			h-4.6v-8.2c0.7-0.4,1.3-1.2,1.3-2.1c0-1.3-1-2.3-2.3-2.3h-1.4c1.9-1.4,3.9-3.2,5.5-5.6c5.6-7.9,4.1-16.5,4.1-16.9
			c-0.2-1.3-1.4-2.1-2.7-1.9c-0.2,0-4.8,0.9-9.4,4.3c-1.8-5.5-5-8.8-5.2-9c-0.4-0.4-1-0.7-1.7-0.7s-1.2,0.2-1.7,0.7
			c-0.2,0.2-3.4,3.5-5.2,9c-4.6-3.5-9.2-4.3-9.4-4.3c-1.3-0.2-2.5,0.6-2.7,1.9c-0.1,0.4-1.5,9,4.1,16.9c1.7,2.4,3.6,4.2,5.5,5.6
			h-1.4c-1.3,0-2.3,1-2.3,2.3c0,0.9,0.5,1.7,1.3,2.1v8.2h-5.5c-1.3,0-2.3,1-2.3,2.3v10.1c0,1.3,1,2.3,2.3,2.3h8.7v48.2
			c0,1.3,1,2.3,2.3,2.3h10.1c1.3,0,2.3-1,2.3-2.3v-48.2H125.8z M55,113.8h14.3v7.9H55V113.8z M76.6,90.1c-0.1,2.6-0.7,6.8-3.4,10.7
			c-1.5,2.1-3.3,3.7-5,4.9c1.1-2.5,2-5.7,2-9.4c0-0.7,0-1.3-0.1-2C72.3,92.1,74.8,90.8,76.6,90.1L76.6,90.1z M62.1,85.5
			c1.5,2.2,3.3,6,3.3,10.7c0,4.8-1.9,8.5-3.3,10.7c-1.5-2.2-3.3-5.9-3.3-10.7C58.8,91.5,60.7,87.8,62.1,85.5L62.1,85.5z M47.6,90.1
			c1.8,0.7,4.3,2,6.6,4.2c-0.1,0.6-0.1,1.3-0.1,2c0,3.7,0.9,6.9,2,9.4c-1.7-1.1-3.5-2.7-5-4.9C48.3,96.9,47.7,92.8,47.6,90.1
			L47.6,90.1z M63.6,182.3h-5.4v-45.8h5.4V182.3z"/>
		<path class="st0" d="M169.6,134.1V124c0-1.3-1-2.3-2.3-2.3h-5.5v-8.2c0.7-0.4,1.3-1.2,1.3-2.1c0-1.3-1-2.3-2.3-2.3h-1.4
			c1.9-1.4,3.9-3.2,5.5-5.6c5.6-7.9,4.1-16.5,4.1-16.9c-0.2-1.3-1.4-2.1-2.7-1.9c-0.2,0-4.8,0.9-9.4,4.3c-1.8-5.5-5-8.8-5.2-9
			c-0.4-0.4-1-0.7-1.7-0.7s-1.2,0.2-1.7,0.7c-0.2,0.2-3.4,3.5-5.2,9c-4.6-3.5-9.2-4.3-9.4-4.3c-1.3-0.2-2.5,0.6-2.7,1.9
			c-0.1,0.4-1.5,9,4.1,16.9c1.7,2.4,3.6,4.2,5.5,5.6h-1.4c-1.3,0-2.3,1-2.3,2.3c0,0.9,0.5,1.7,1.3,2.1v8.2h-20.3v-8.2
			c0.8-0.4,1.3-1.2,1.3-2.1c0-1.3-1-2.3-2.3-2.3h-8.4V104c4.3-1.1,7.6-5,7.6-9.6v-9.5c0-0.9-0.5-1.7-1.3-2.1
			c-0.8-0.4-1.8-0.3-2.5,0.3l-1.3,1l-3-3.8c-0.4-0.6-1.1-0.9-1.8-0.9s-1.4,0.3-1.8,0.9l-3,3.8l-1.3-1c-0.7-0.6-1.7-0.7-2.5-0.3
			c-0.8,0.4-1.3,1.2-1.3,2.1v9.5c0,4.7,3.2,8.6,7.6,9.6v5.1h-8.4c-1.3,0-2.3,1-2.3,2.3c0,0.9,0.5,1.7,1.3,2.1v8.2h-4.7
			c-1.3,0-2.3,1-2.3,2.3c0,1.3,1,2.3,2.3,2.3h75.4v5.4h-28.2c-1.3,0-2.3,1-2.3,2.3s1,2.3,2.3,2.3h7v48.2c0,1.3,1,2.3,2.3,2.3h10.1
			c1.3,0,2.3-1,2.3-2.3v-48.2h8.7C168.5,136.5,169.6,135.4,169.6,134.1L169.6,134.1z M142.8,113.8H157v7.9h-14.3V113.8z M164.4,90.1
			c-0.1,2.6-0.7,6.8-3.4,10.7c-1.5,2.1-3.3,3.7-5,4.9c1.1-2.5,2-5.7,2-9.4c0-0.7,0-1.3-0.1-2C160.1,92.1,162.6,90.8,164.4,90.1
			L164.4,90.1z M149.9,85.5c1.5,2.2,3.3,6,3.3,10.7c0,4.8-1.9,8.5-3.3,10.7c-1.5-2.2-3.3-6-3.3-10.7
			C146.5,91.5,148.4,87.8,149.9,85.5z M135.4,90.1c1.8,0.7,4.3,2,6.6,4.2c-0.1,0.6-0.1,1.3-0.1,2c0,3.7,0.9,6.9,2,9.4
			c-1.7-1.1-3.5-2.7-5-4.9C136.1,96.9,135.5,92.7,135.4,90.1L135.4,90.1z M100.8,94.4v-4.7c0.3,0.1,0.7,0.2,1.1,0.1
			c0.6-0.1,1.2-0.4,1.6-0.9l2.6-3.3l2.6,3.3c0.4,0.5,1,0.8,1.6,0.9c0.4,0,0.7,0,1.1-0.1v4.7c0,2.9-2.3,5.2-5.2,5.2
			S100.8,97.3,100.8,94.4L100.8,94.4z M98.9,113.8h14.3v7.9H98.9V113.8z M153.8,182.3h-5.4v-45.8h5.4V182.3z"/>
		<path class="st0" d="M99.7,164.3c1.3,0,2.3-1,2.3-2.3c0-1.3-1-2.3-2.3-2.3h-1.4v-5.4h0.5c1.3,0,2.3-1,2.3-2.3c0-1.3-1-2.3-2.3-2.3
			h-1.2c-1.4-3.7-5-6.3-9.2-6.3s-7.8,2.6-9.2,6.3h-1.2c-1.3,0-2.3,1-2.3,2.3c0,1.3,1,2.3,2.3,2.3h0.5v5.4H77c-1.3,0-2.3,1-2.3,2.3
			c0,1.3,1,2.3,2.3,2.3h1.4v5.4h-0.8c-1.3,0-2.3,1-2.3,2.3c0,0.9,0.5,1.7,1.3,2.1v10.5c0,1.3,1,2.3,2.3,2.3h18.9
			c1.3,0,2.3-1,2.3-2.3v-10.5c0.8-0.4,1.3-1.2,1.3-2.1c0-1.3-1-2.3-2.3-2.3h-0.8v-5.4L99.7,164.3z M95.4,182.3H81.2v-7.9h14.3V182.3
			z M83.1,169.7v-16.6c0-2.9,2.3-5.2,5.2-5.2s5.2,2.3,5.2,5.2v16.6H83.1z"/>
		<path class="st0" d="M134.4,169.7h-2.3c0.9-1.5,1.5-3.3,1.5-5.2v-15.8c0-0.9-0.5-1.7-1.3-2.1c-0.8-0.4-1.8-0.3-2.5,0.3l-1.3,1
			l-3-3.8c-0.4-0.6-1.1-0.9-1.9-0.9c-0.7,0-1.4,0.3-1.9,0.9l-3,3.8l-1.3-1c-0.7-0.6-1.7-0.7-2.5-0.3c-0.8,0.4-1.3,1.2-1.3,2.1v15.8
			c0,1.9,0.5,3.7,1.5,5.2h-2.3c-1.3,0-2.3,1-2.3,2.3c0,0.9,0.5,1.7,1.3,2.1v10.5c0,1.3,1,2.3,2.3,2.3h18.9c1.3,0,2.3-1,2.3-2.3
			v-10.5c0.8-0.4,1.3-1.2,1.3-2.1C136.8,170.7,135.7,169.7,134.4,169.7L134.4,169.7z M118.4,164.5v-11.1c0.3,0.1,0.7,0.2,1.1,0.1
			c0.6-0.1,1.2-0.4,1.6-0.9l2.6-3.3l2.6,3.3c0.4,0.5,1,0.8,1.6,0.9c0.4,0,0.7,0,1.1-0.1v11.1c0,2.9-2.3,5.2-5.2,5.2
			C120.8,169.7,118.4,167.3,118.4,164.5L118.4,164.5z M130.8,182.3h-14.3v-7.9h14.3V182.3z"/>
	</g>
</g>
</svg>
