<?xml version="1.0" encoding="utf-8"?>
<!-- Generator: Adobe Illustrator 21.0.0, SVG Export Plug-In . SVG Version: 6.00 Build 0)  -->
<svg version="1.1" id="Camada_1" xmlns="http://www.w3.org/2000/svg" xmlns:xlink="http://www.w3.org/1999/xlink" x="0px" y="0px"
	 viewBox="0 0 213 213" style="enable-background:new 0 0 213 213;" xml:space="preserve">
<style type="text/css">
	.st0{fill:#A50112;}
</style>
<g>
	<path class="st0" d="M186,78.6v-5.2c0-2.8-2.3-5.2-5.2-5.2h-0.2c-0.8-5.5-3.7-10.7-6.2-14.3c-2.8-4-7.5-6.4-12.5-6.4h-30.4
		c0.2-0.8,0.4-1.7,0.4-2.6c0-4-2.3-7.6-5.8-9.3c-1.7-5.2-6.7-8.8-12.2-8.8c-3.3,0-6.4,1.3-8.8,3.5c-1.3-0.6-2.7-0.9-4.1-0.9
		c-3.8,0-7.2,2.1-9,5.3c-6.1-0.8-11.7,4.1-11.7,10.2c0,0.9,0.1,1.8,0.4,2.6H50.1c-5,0-9.7,2.4-12.5,6.4c-2.5,3.6-5.5,8.8-6.2,14.3
		h-0.2c-2.8,0-5.2,2.3-5.2,5.2v5.2c0,2.8,2.3,5.2,5.2,5.2v41.3c0,4.8,3.3,8.8,7.7,10v0.4h-7.7c-2.8,0-5.2,2.3-5.2,5.2v20.6
		c0,2.8,2.3,5.2,5.2,5.2h5.6c-0.3,0.8-0.5,1.7-0.5,2.6c0,4.3,3.5,7.7,7.7,7.7h3.1c-0.3,0.8-0.5,1.7-0.5,2.6c0,4.3,3.5,7.7,7.7,7.7
		h25.8c4.3,0,7.7-3.5,7.7-7.7c0-1-0.2-2-0.6-2.9c3.3-0.9,5.7-3.9,5.7-7.4c0-4.3-3.5-7.7-7.7-7.7h-7.7v-31h20.6v51.7
		c0,2.8,2.3,5.1,5.2,5.1h77.4c2.8,0,5.2-2.3,5.2-5.1V94c0-2.8-2.3-5.1-5.2-5.1v-5.2C183.7,83.8,186,81.5,186,78.6L186,78.6z
		 M170.2,57c2.1,2.9,4.5,7,5.2,11.3h-56.5V57c0.5-0.5,0.9-1.1,1.2-1.7c3.1,0.4,6-0.6,8.1-2.5h33.6C165.2,52.8,168.3,54.4,170.2,57z
		 M103.4,61.7v6.6h-5.2v-5.2C100.1,63.1,101.9,62.6,103.4,61.7z M108.6,60.2c0.8,0.2,1.7,0.3,2.6,0.3c0.9,0,1.7-0.1,2.6-0.3v8.1
		h-5.2V60.2z M90.5,39.9c0.6,0,1.3,0.1,1.9,0.4l2.7,1.1l0.8-2.8c0.6-2.2,2.6-3.8,5-3.8c1.1,0,2.2,0.4,3.1,1l2.1,1.6l1.6-2.1
		c1.4-1.9,3.7-3.1,6.2-3.1c3.6,0,6.8,2.6,7.6,6.1l0.3,1.5l1.4,0.4c2.1,0.7,3.6,2.6,3.6,4.9c0,2.8-2.3,5.2-5.2,5.2
		c-0.6,0-1.3-0.1-1.9-0.4l-2.7-1.1l-0.8,2.8c-0.6,2.2-2.6,3.8-5,3.8c-1.5,0-2.8-0.6-3.7-1.6l-2.9-3.1l-1.5,4c-0.7,2-2.7,3.4-4.8,3.4
		c-2.8,0-5.2-2.3-5.2-5.2v-2.6h-2.6c-2.8,0-5.2-2.3-5.2-5.2S87.7,39.9,90.5,39.9z M41.8,57c1.9-2.6,5-4.2,8.3-4.2h33.6
		c1.3,1.1,2.8,1.9,4.5,2.3c0.7,2.8,2.5,5.2,4.9,6.6v6.6H36.6C37.3,64.1,39.7,59.9,41.8,57z M31.2,73.5h149.7l0,5.2H31.2L31.2,73.5z
		 M36.3,125.1c0-2.9,3.4-8.7,5.2-10.1c1.8,1.4,5.2,7.2,5.2,10.1c0,2.8-2.3,5.2-5.2,5.2S36.3,127.9,36.3,125.1z M31.2,140.5h20.6
		v20.6H31.2L31.2,140.5z M87.9,168.9c0,1.4-1.2,2.6-2.6,2.6H72.5v5.2h7.7c1.4,0,2.6,1.2,2.6,2.6c0,1.4-1.2,2.6-2.6,2.6H54.4
		c-1.4,0-2.6-1.2-2.6-2.6c0-1.4,1.2-2.6,2.6-2.6h7.8v-5.2h-7.7v0c0,0,0,0,0,0H44.1c-1.4,0-2.6-1.2-2.6-2.6s1.2-2.6,2.6-2.6h41.3
		C86.8,166.4,87.9,167.5,87.9,168.9z M57,161.2v-20.6c0-2.8-2.3-5.2-5.2-5.2h-7.7V135c4.4-1.2,7.7-5.2,7.7-10c0-1.3-0.5-3.2-1.2-5.2
		h21.6c0.1,0,0.2,0,0.2,0v41.3H57z M57,109.6c-2.8,0-5.2-2.3-5.2-5.2c0-2.9,3.4-8.7,5.2-10.1c1.8,1.4,5.2,7.2,5.2,10.1
		C62.1,107.3,59.8,109.6,57,109.6z M120.1,125c-0.8,2.3-1.2,4.7-1.2,7.1v2.5c0,4.7,3.2,8.9,7.8,10l3,0.8c0.9,1.3,2.1,2.4,3.4,3.3
		l-0.8,3.4l-4.6,1.1c-3.2,0.8-6.2,2.5-8.6,4.8c-3.5,3.5-5.4,8.1-5.4,13v-39.7L120.1,125z M147.2,154c-0.3,1.2-1.2,2-2.5,2h-5.2
		c-1.2,0-2.2-0.9-2.5-2l0.8-3.1c1.4,0.4,2.8,0.6,4.3,0.6s2.9-0.2,4.3-0.6L147.2,154z M142.1,146.4c-5.7,0-10.3-4.6-10.3-10.3v-3.9
		c3.8-1.3,7.3-3.3,10.3-6c3,2.7,6.5,4.7,10.3,6v3.9C152.5,141.7,147.8,146.4,142.1,146.4z M154.1,127.2c-3.5-1.2-6.8-3.2-9.4-5.8
		l-2.5-2.5l-2.5,2.5c-2.6,2.6-5.9,4.6-9.4,5.8c-2.1,0.7-3.5,2.7-3.5,4.9v3.9c0,1.1,0.1,2.1,0.3,3.1c-1.7-0.9-2.9-2.6-2.9-4.6V132
		c0-3.9,1.3-7.7,3.8-10.8c3.3-4.1,8.1-6.5,13.4-6.6l1.1,0c5.4-0.1,10.7,2.4,14.1,6.6c2.4,3.1,3.8,6.9,3.8,10.8v2.5
		c0,2-1.2,3.8-2.9,4.6c0.2-1,0.3-2,0.3-3.1v-3.9C157.6,129.9,156.2,127.9,154.1,127.2L154.1,127.2z M118.9,171
		c0-3.5,1.4-6.9,3.9-9.4c1.7-1.7,3.8-2.9,6.2-3.5l3.8-1c1.3,2.4,3.8,4,6.8,4h5.2c2.9,0,5.4-1.6,6.8-4l3.8,1c2.3,0.6,4.5,1.8,6.2,3.5
		c2.5,2.5,3.9,5.8,3.9,9.4v0.5h-46.5L118.9,171z M165.1,158c-2.4-2.4-5.3-4-8.6-4.8L152,152l-0.8-3.4c1.3-0.9,2.4-2,3.4-3.3l3-0.8
		c4.6-1.1,7.8-5.3,7.8-10V132c0-5.1-1.7-10.1-4.9-14c-4.4-5.5-11.2-8.7-18.3-8.5l-1,0c-2.3,0-4.6,0.5-6.8,1.2l6.3-6.3h29.9V171
		C170.5,166.1,168.6,161.4,165.1,158L165.1,158z M103.4,134.3v-8.2l32.1-32.1l8.2,0L103.4,134.3z M113.7,108.5v-4.1h4.1L113.7,108.5
		z M123,99.3h-14.4v14.4l-5.2,5.2V94.1l24.8,0L123,99.3z M180.8,181.8h-77.4v-40.2l5.2-5.2v40.2h67.1V99.3h-29.9l5.2-5.2l29.9,0
		V181.8z M175.7,88.9h-72.3c-2.8,0-5.2,2.3-5.2,5.1v31H77.6v-5.3c0-2.8-2.4-5-5.4-5H59.5v-0.4c4.4-1.2,7.7-5.2,7.7-10
		c0-4.6-5.4-15.5-10.3-15.5s-10.3,10.9-10.3,15.5c0,4.8,3.3,8.8,7.7,10v0.4H48c-1.9-2.9-4.2-5.2-6.5-5.2c-1.7,0-3.6,1.4-5.2,3.4
		V83.8h139.4V88.9z"/>
	<path class="st0" d="M111.2,37.3h5.2v5.2h-5.2V37.3z"/>
	<path class="st0" d="M95.7,42.5h5.2v5.2h-5.2V42.5z"/>
</g>
</svg>
