<?xml version="1.0" encoding="utf-8"?>
<!-- Generator: Adobe Illustrator 21.0.0, SVG Export Plug-In . SVG Version: 6.00 Build 0)  -->
<svg version="1.1" id="Camada_1" xmlns="http://www.w3.org/2000/svg" xmlns:xlink="http://www.w3.org/1999/xlink" x="0px" y="0px"
	 viewBox="0 0 213 213" style="enable-background:new 0 0 213 213;" xml:space="preserve">
<style type="text/css">
	.st0{fill:#A50112;}
</style>
<g>
	<path class="st0" d="M169.3,43c-16.9-4.1-39.3-6.3-63.1-6.3S60,38.9,43.2,43C24.5,47.5,15,53.6,15,61c0,0.4,0,0.8,0.1,1.2
		C15,62.4,15,62.6,15,62.8v89.4c0,7.4,9.5,13.5,28.2,18c16.9,4.1,39.3,6.3,63.1,6.3s46.2-2.2,63.1-6.3c18.7-4.5,28.2-10.6,28.2-18
		V62.8c0-0.2,0-0.5-0.1-0.7c0.1-0.4,0.1-0.8,0.1-1.2C197.4,53.6,188,47.5,169.3,43z M26.5,55.3c4.1-2.4,10.4-4.6,18.1-6.5
		c16.4-4,38.3-6.1,61.6-6.1s45.2,2.2,61.6,6.1c7.7,1.9,14,4.1,18.1,6.5c3.4,2,5.4,4,5.4,5.6s-2,3.7-5.4,5.6
		c-2.9,1.6-6.7,3.2-11.4,4.6c-2.8-2.9-9.4-5-20.5-6.8c-12.8-2-29.8-3.2-47.8-3.2s-35,1.1-47.8,3.2c-11.2,1.8-17.7,3.9-20.5,6.8
		c-4.7-1.4-8.6-3-11.4-4.6c-3.4-2-5.4-4-5.4-5.6S23,57.3,26.5,55.3z M167.9,152.1c-1.3,0.3-2.5,0.6-3.9,0.9v-33.3
		c1.8-0.4,3.6-0.8,5.3-1.2c2.4-0.6,4.7-1.2,6.9-1.9v33.1C173.6,150.6,170.9,151.4,167.9,152.1z M66.7,83.1v33.4
		c-4.2-0.5-8.3-1.1-12.2-1.8V81.3C58.4,82,62.5,82.6,66.7,83.1z M72.8,83.8c3.9,0.4,8,0.7,12.2,1v33.4c-4.2-0.2-8.2-0.6-12.2-1V83.8
		z M91,85c4,0.2,8.1,0.3,12.2,0.3v33.4c-4.1,0-8.2-0.1-12.2-0.3V85z M109.3,85.3c4.1,0,8.2-0.1,12.2-0.3v33.4
		c-4,0.2-8.1,0.3-12.2,0.3V85.3z M127.5,84.7c4.2-0.2,8.2-0.6,12.2-1v33.4c-3.9,0.4-8,0.7-12.2,1V84.7z M145.7,83.1
		c4.2-0.5,8.3-1.1,12.2-1.8v33.4c-3.9,0.7-7.9,1.3-12.2,1.8V83.1z M106.2,79.2c-22.5,0-43.7-2-59.9-5.8c2.9-1,7.6-2.2,15.6-3.4
		c12.2-1.7,27.9-2.7,44.3-2.7s32.2,1,44.3,2.7c8,1.1,12.8,2.4,15.6,3.4C149.9,77.2,128.7,79.2,106.2,79.2z M43.2,79
		c1.7,0.4,3.5,0.8,5.3,1.2v33.3c-1.3-0.3-2.6-0.6-3.9-0.9c-3-0.7-5.8-1.5-8.3-2.3V77.1C38.4,77.8,40.7,78.4,43.2,79z M43.2,118.5
		c1.7,0.4,3.5,0.8,5.3,1.2V153c-1.3-0.3-2.6-0.6-3.9-0.9c-3-0.7-5.8-1.5-8.3-2.3v-33.1C38.4,117.3,40.7,117.9,43.2,118.5z
		 M54.5,120.9c3.9,0.7,7.9,1.3,12.2,1.8V156c-4.2-0.5-8.3-1.1-12.2-1.8V120.9z M72.8,123.3c3.9,0.4,8,0.7,12.2,1v33.4
		c-4.2-0.2-8.2-0.6-12.2-1V123.3z M91,124.5c4,0.2,8.1,0.3,12.2,0.3v33.4c-4.1,0-8.2-0.1-12.2-0.3V124.5z M109.3,124.8
		c4.1,0,8.2-0.1,12.2-0.3V158c-4,0.2-8.1,0.3-12.2,0.3V124.8z M127.5,124.2c4.2-0.2,8.2-0.6,12.2-1v33.4c-3.9,0.4-8,0.7-12.2,1
		V124.2z M145.7,122.6c4.2-0.5,8.3-1.1,12.2-1.8v33.4c-3.9,0.7-7.9,1.3-12.2,1.8V122.6z M167.9,112.6c-1.3,0.3-2.5,0.6-3.9,0.9V80.2
		c1.8-0.4,3.6-0.8,5.3-1.2c2.4-0.6,4.7-1.2,6.9-1.9v33.1C173.6,111.1,170.9,111.9,167.9,112.6L167.9,112.6z M21.1,70.4
		c2.4,1.7,5.4,3.2,9.1,4.6V108c-1.3-0.5-2.5-1.2-3.7-1.8c-3.4-2-5.4-4-5.4-5.6V70.4z M21.1,110c2.4,1.7,5.4,3.2,9.1,4.6v32.9
		c-1.3-0.5-2.5-1.2-3.7-1.8c-3.4-2-5.4-4-5.4-5.6V110z M186,157.9c-4.1,2.4-10.4,4.6-18.1,6.5c-16.4,4-38.3,6.1-61.6,6.1
		s-45.2-2.2-61.6-6.1c-7.7-1.9-14-4.1-18.1-6.5c-3.4-2-5.4-4-5.4-5.6v-2.7c4.7,3.3,12,6.1,22.1,8.6c16.9,4.1,39.3,6.3,63.1,6.3
		s46.2-2.2,63.1-6.3c10-2.4,17.4-5.3,22.1-8.6v2.7C191.4,153.8,189.4,155.9,186,157.9z M186,145.7c-1.2,0.7-2.5,1.3-3.7,1.8v-32.9
		c3.7-1.4,6.8-3,9.1-4.6V140C191.4,141.7,189.4,143.7,186,145.7z M186,106.2c-1.2,0.7-2.5,1.3-3.7,1.8V75.1c3.7-1.4,6.8-3,9.1-4.6
		v30.1C191.4,102.2,189.4,104.2,186,106.2z"/>
	<circle class="st0" cx="106.2" cy="53.7" r="3"/>
	<circle class="st0" cx="60.6" cy="56.8" r="3"/>
	<circle class="st0" cx="151.8" cy="56.8" r="3"/>
</g>
</svg>
