<?xml version="1.0" encoding="utf-8"?>
<!-- Generator: Adobe Illustrator 21.0.0, SVG Export Plug-In . SVG Version: 6.00 Build 0)  -->
<svg version="1.1" id="Camada_1" xmlns="http://www.w3.org/2000/svg" xmlns:xlink="http://www.w3.org/1999/xlink" x="0px" y="0px"
	 viewBox="0 0 213 213" style="enable-background:new 0 0 213 213;" xml:space="preserve">
<style type="text/css">
	.st0{fill:#A50112;}
</style>
<g>
	<g>
		<g>
			<path class="st0" d="M186,53.2c0-5.2-4.2-9.4-9.4-9.4h-26.1c-1.7,0-3.1,1.4-3.1,3.1s1.4,3.1,3.1,3.1h26.1c1.7,0,3.1,1.4,3.1,3.1
				V72H32.2V53.2c0-1.7,1.4-3.1,3.1-3.1h38.9c1.7,0,3.1-1.4,3.1-3.1s-1.4-3.1-3.1-3.1H35.4c-5.2,0-9.4,4.2-9.4,9.4v21.9
				c0,0,0,0.1,0,0.1c0,0,0,0.1,0,0.1v10.9c0,5.3,2.8,10,6.9,12.7c0,0.2-0.1,0.4-0.1,0.6v81.1h-3.8c-1.7,0-3.1,1.4-3.1,3.1
				s1.4,3.1,3.1,3.1h153.8c1.7,0,3.1-1.4,3.1-3.1s-1.4-3.1-3.1-3.1h-3.8V99.7c0-0.2,0-0.4-0.1-0.6c4.2-2.7,6.9-7.4,6.9-12.7V75.4
				c0,0,0-0.1,0-0.1c0,0,0-0.1,0-0.1V53.2z M134.8,78.3L134.8,78.3h19.4v8c0,4.9-4,8.9-8.9,8.9h-1.6c-4.9,0-8.9-4-8.9-8.9V78.3z
				 M109.1,78.3L109.1,78.3h19.4v8c0,4.9-4,8.9-8.9,8.9H118c-4.9,0-8.9-4-8.9-8.9V78.3z M83.5,78.3L83.5,78.3h19.4v8
				c0,4.9-4,8.9-8.9,8.9h-1.6c-4.9,0-8.9-4-8.9-8.9L83.5,78.3L83.5,78.3z M57.9,78.3L57.9,78.3h19.4v8c0,4.9-4,8.9-8.9,8.9h-1.6
				c-4.9,0-8.9-4-8.9-8.9V78.3z M32.2,86.3v-8h19.4v8c0,4.9-4,8.9-8.9,8.9h-1.6C36.2,95.2,32.2,91.2,32.2,86.3z M98.5,180.7H56
				v-61.3h42.5V180.7z M172.9,158.2h-49.4v-38.8h49.4V158.2z M172.9,113.2L172.9,113.2h-52.5c-1.7,0-3.1,1.4-3.1,3.1v45
				c0,1.7,1.4,3.1,3.1,3.1h52.5v16.3h-68.1v-64.4c0-1.7-1.4-3.1-3.1-3.1H52.9c-1.7,0-3.1,1.4-3.1,3.1v64.4H39.1v-79.4
				c0.7,0.1,1.3,0.1,2,0.1h1.6c4.9,0,9.3-2.3,12-6c2.8,3.6,7.1,6,12,6h1.6c4.9,0,9.3-2.3,12-6c2.8,3.6,7.1,6,12,6H94
				c4.9,0,9.3-2.3,12-6c2.8,3.6,7.1,6,12,6h1.6c4.9,0,9.3-2.3,12-6c2.8,3.6,7.1,6,12,6h1.6c4.9,0,9.3-2.3,12-6c2.8,3.6,7.1,6,12,6
				h1.6c0.7,0,1.4-0.1,2-0.1V113.2z M179.8,86.3c0,4.9-4,8.9-8.9,8.9h-1.6c-4.9,0-8.9-4-8.9-8.9v-8h19.4V86.3z"/>
		</g>
	</g>
	<g>
		<g>
			<path class="st0" d="M90.7,147.9c-0.6-0.6-1.4-0.9-2.2-0.9c-0.8,0-1.6,0.3-2.2,0.9s-0.9,1.4-0.9,2.2c0,0.8,0.3,1.6,0.9,2.2
				c0.6,0.6,1.4,0.9,2.2,0.9c0.8,0,1.6-0.3,2.2-0.9c0.6-0.6,0.9-1.4,0.9-2.2C91.6,149.3,91.3,148.5,90.7,147.9z"/>
		</g>
	</g>
	<g>
		<g>
			<path class="st0" d="M121.8,30.6c-4.8-4.8-12.7-4.8-17.5,0L90.2,44.7c-2.3,2.3-3.6,5.4-3.6,8.7c0,3.3,1.3,6.4,3.6,8.7
				c2.4,2.4,5.6,3.6,8.7,3.6c3.2,0,6.3-1.2,8.7-3.6l7-7c0,0,0,0,0,0c0,0,0,0,0,0l7-7c2.3-2.3,3.6-5.4,3.6-8.7
				C125.4,36,124.1,32.9,121.8,30.6z M103.3,57.7c-2.4,2.4-6.2,2.4-8.6,0c-1.2-1.2-1.8-2.7-1.8-4.3c0-1.6,0.6-3.2,1.8-4.3l4.8-4.8
				l8.6,8.6L103.3,57.7z M117.3,43.7l-4.8,4.8l-8.6-8.6l4.8-4.8c1.2-1.2,2.8-1.8,4.3-1.8s3.1,0.6,4.3,1.8c1.2,1.2,1.8,2.7,1.8,4.3
				C119.1,41,118.5,42.5,117.3,43.7z"/>
		</g>
	</g>
	<g>
		<g>
			<path class="st0" d="M159.6,135.7h-8.3v-8.3c0-1.7-1.4-3.1-3.1-3.1c-1.7,0-3.1,1.4-3.1,3.1v8.3h-8.3c-1.7,0-3.1,1.4-3.1,3.1
				s1.4,3.1,3.1,3.1h8.3v8.3c0,1.7,1.4,3.1,3.1,3.1c1.7,0,3.1-1.4,3.1-3.1V142h8.3c1.7,0,3.1-1.4,3.1-3.1S161.3,135.7,159.6,135.7z"
				/>
		</g>
	</g>
	<g>
		<g>
			<path class="st0" d="M67.9,128c-1.7,0-3.1,1.4-3.1,3.1v26c0,1.7,1.4,3.1,3.1,3.1s3.1-1.4,3.1-3.1v-26C71,129.4,69.6,128,67.9,128
				z"/>
		</g>
	</g>
	<g>
		<g>
			<path class="st0" d="M70.1,166.9c-0.6-0.6-1.4-0.9-2.2-0.9c-0.8,0-1.6,0.3-2.2,0.9c-0.6,0.6-0.9,1.4-0.9,2.2
				c0,0.8,0.3,1.6,0.9,2.2s1.4,0.9,2.2,0.9c0.8,0,1.6-0.3,2.2-0.9c0.6-0.6,0.9-1.4,0.9-2.2C71,168.3,70.7,167.5,70.1,166.9z"/>
		</g>
	</g>
</g>
</svg>
