<?xml version="1.0" encoding="utf-8"?>
<!-- Generator: Adobe Illustrator 21.0.0, SVG Export Plug-In . SVG Version: 6.00 Build 0)  -->
<svg version="1.1" id="Camada_1" xmlns="http://www.w3.org/2000/svg" xmlns:xlink="http://www.w3.org/1999/xlink" x="0px" y="0px"
	 viewBox="0 0 213 213" style="enable-background:new 0 0 213 213;" xml:space="preserve">
<style type="text/css">
	.st0{fill:#A50112;}
</style>
<g>
	<g>
		<g>
			<path class="st0" d="M163.7,140.8C163.6,140.8,163.6,140.8,163.7,140.8c-0.2-0.3-0.3-0.5-0.5-0.7c-0.1-0.1-0.2-0.2-0.2-0.4
				c-0.1-0.1-0.2-0.3-0.3-0.4c-0.1-0.2-0.3-0.4-0.4-0.5c0-0.1-0.1-0.1-0.1-0.2c0,0-0.1-0.1-0.1-0.1c-0.2-0.2-0.3-0.4-0.5-0.6
				c-0.1-0.1-0.1-0.1-0.2-0.2c-0.2-0.2-0.3-0.4-0.5-0.6c-0.1-0.1-0.1-0.2-0.2-0.2c-0.1-0.2-0.3-0.3-0.4-0.5
				c-0.1-0.1-0.2-0.2-0.3-0.4c-0.1-0.1-0.2-0.2-0.3-0.3c-3.2-3.3-7.2-5.7-11.7-7c-0.1,0-0.2,0-0.2-0.1c0,0-21.2-3.9-21.2-3.9
				c0,0-0.1,0-0.1,0c-1-0.2-2,0-2.9,0.4c-0.7-0.9-1.2-2.1-1.2-3.3v-3.8c1.3-0.9,2.6-1.8,3.9-2.9c5.3-4.5,8.6-11,9.3-18.2
				c3.9-0.2,6.9-3.4,6.9-7.3v-5.5c0-2.2-1-4.3-2.7-5.6V66c7.7-3.8,9.3-8.2,9.3-11.3c0-5.3-5-12-13-17.4C131,33.8,120.3,28,106,28
				s-25,5.8-30.1,9.3c-8,5.4-13,12.1-13,17.4c0,3.1,1.7,7.5,9.3,11.3v12.6c-1.7,1.4-2.7,3.4-2.7,5.6v5.5c0,3.9,3.1,7.1,6.9,7.3
				c0.7,7.1,4,13.6,9.3,18.2c1.3,1.1,2.6,2,3.9,2.9v3.8c0,1.1-0.5,2.4-1.2,3.3c-0.9-0.4-2-0.5-3-0.4l-21.2,3.9c-0.1,0-0.2,0-0.2,0.1
				c-4.5,1.3-8.5,3.7-11.7,7c-0.1,0.1-0.2,0.2-0.3,0.3c-0.1,0.1-0.2,0.2-0.3,0.3c-0.1,0.2-0.3,0.3-0.4,0.5c-0.1,0.1-0.1,0.2-0.2,0.2
				c-0.2,0.2-0.3,0.4-0.5,0.6c-0.1,0.1-0.1,0.1-0.2,0.2c-0.2,0.2-0.3,0.4-0.5,0.6c0,0-0.1,0.1-0.1,0.1c0,0.1-0.1,0.1-0.1,0.2
				c-0.1,0.2-0.3,0.4-0.4,0.5c-0.1,0.1-0.2,0.3-0.3,0.4c-0.1,0.1-0.2,0.2-0.2,0.4c-0.1,0.2-0.3,0.4-0.4,0.7c0,0,0,0.1-0.1,0.1
				c-2.6,4.3-4,9.1-4,14.2v2.9c0,1.3,1,2.3,2.3,2.3c1.3,0,2.3-1,2.3-2.3V155c0-2.3,0.3-4.5,1-6.7c1.4,1.1,3.1,1.7,4.8,1.7
				c0.3,0,0.6,0,0.8,0c2.1-0.2,3.9-1.2,5.2-2.8l2.6-3.2c1.3-1.6,1.9-3.6,1.7-5.7c-0.2-1.6-0.8-3.1-1.9-4.3c0.7-0.3,1.4-0.5,2.1-0.7
				l13.5-2.5l10.7,15c1.1,1.5,2.8,2.3,4.5,2.3c0.7,0,1.5-0.1,2.2-0.4l0.7-0.3l3.1,3.6l-4.5,32.4H66.1v-19c0-1.3-1-2.3-2.3-2.3
				s-2.3,1-2.3,2.3v19H52c-1.6,0-2.9-1.3-2.9-2.9v-11.6c0-1.3-1-2.3-2.3-2.3c-1.3,0-2.3,1-2.3,2.3v11.6c0,4.2,3.4,7.6,7.6,7.6h108
				c4.2,0,7.6-3.4,7.6-7.6V155C167.6,149.9,166.2,145.1,163.7,140.8z M59.8,141l-2.6,3.2c-0.5,0.6-1.2,1-2,1.1
				c-0.8,0.1-1.6-0.1-2.2-0.7l-1-0.8c0.2-0.4,0.4-0.7,0.7-1.1c0,0,0,0,0,0c0.2-0.3,0.4-0.6,0.6-0.9c0.1-0.1,0.1-0.2,0.2-0.3
				c0.2-0.3,0.4-0.5,0.6-0.8c0.1-0.1,0.1-0.1,0.2-0.2c0.2-0.3,0.5-0.5,0.7-0.8c0.1-0.1,0.1-0.2,0.2-0.2c0.2-0.3,0.5-0.5,0.7-0.7
				c0,0,0,0,0.1-0.1c0.9-0.9,1.9-1.7,2.9-2.4l0.5,0.4c0.6,0.5,1,1.2,1.1,2C60.5,139.6,60.3,140.4,59.8,141z M152.7,136.8l0.5-0.4
				c1.1,0.7,2,1.5,2.9,2.4c0,0,0,0,0.1,0.1c0.2,0.2,0.5,0.5,0.7,0.7c0.1,0.1,0.1,0.2,0.2,0.2c0.2,0.3,0.5,0.5,0.7,0.8
				c0.1,0.1,0.1,0.1,0.2,0.2c0.2,0.2,0.4,0.5,0.6,0.8c0.1,0.1,0.1,0.2,0.2,0.3c0.2,0.3,0.4,0.6,0.6,0.9c0,0,0,0,0,0
				c0.2,0.4,0.4,0.7,0.7,1.1l-1,0.8c-0.6,0.5-1.4,0.7-2.2,0.7c-0.8-0.1-1.5-0.5-2-1.1l-2.6-3.2C151.1,139.7,151.4,137.8,152.7,136.8
				z M124.7,129.9C124.7,129.9,124.7,129.9,124.7,129.9l0.6-0.5c0.1-0.1,0.2-0.1,0.4-0.1l2.5,0.5l-9.5,13.2c-0.2,0.3-0.7,0.5-1,0.3
				l-7-3L124.7,129.9z M106,138l-13.7-10.2c1.3-1.7,2.1-3.9,2.1-6v-1.4c3.6,1.5,7.5,2.3,11.6,2.4c0,0,0,0,0,0c0,0,0,0,0,0
				c4.1,0,7.9-0.8,11.6-2.4v1.4c0,2.1,0.8,4.3,2.1,6L106,138z M110.6,145.4l-2.1,2.5h-4.9l-2.1-2.5l4.6-1.9L110.6,145.4z M72.3,60.6
				c-3-1.9-4.6-3.9-4.6-5.9c0-4.2,5.6-10,10.9-13.5C83.2,38,93,32.7,106,32.7s22.8,5.3,27.5,8.5c5.2,3.6,10.9,9.3,10.9,13.5
				c0,2-1.6,4.1-4.6,5.9v-4.3c0-3.3-2.2-6.2-5.4-7c-6.1-1.6-18-4.2-29.7-4.2c0,0,0,0,0,0c-10.2,0-20.3,2.2-26.9,4.1
				c-3.1,0.9-5.3,3.7-5.3,7V60.6z M80.4,68.9C80.4,68.8,80.3,68.8,80.4,68.9c-0.3-0.2-0.4-0.3-0.5-0.4c-0.1,0-0.1-0.1-0.2-0.1
				c-0.1-0.1-0.2-0.2-0.3-0.2c-0.1-0.1-0.1-0.1-0.2-0.2c-0.1-0.1-0.2-0.1-0.3-0.2c-0.1-0.1-0.2-0.1-0.2-0.2
				c-0.1-0.1-0.1-0.1-0.2-0.2c-0.1-0.1-0.2-0.2-0.3-0.3c0,0-0.1-0.1-0.1-0.1c0,0,0,0,0,0h39.4c1.3,0,2.3-1,2.3-2.3
				c0-1.3-1-2.3-2.3-2.3H77v-6c0-1.1,0.8-2.1,1.9-2.5c6.4-1.8,16-3.9,25.7-3.9c0,0,0,0,0,0c11.2,0,22.7,2.5,28.6,4
				c1.1,0.3,1.9,1.3,1.9,2.5v5.9h-6.3c-1.3,0-2.3,1-2.3,2.3c0,1.3,1,2.3,2.3,2.3h5.2c0,0,0,0,0,0c0,0-0.1,0.1-0.1,0.1
				c-0.1,0.1-0.2,0.2-0.3,0.3c-0.1,0.1-0.1,0.1-0.2,0.2c-0.1,0.1-0.2,0.1-0.2,0.2c-0.1,0.1-0.2,0.1-0.3,0.2
				c-0.1,0.1-0.1,0.1-0.2,0.2c-0.1,0.1-0.2,0.2-0.3,0.2c-0.1,0-0.1,0.1-0.2,0.1c-0.1,0.1-0.3,0.2-0.4,0.3c0,0-0.1,0-0.1,0.1
				c-1,0.6-2.1,1.2-3.5,1.8c0,0-0.1,0-0.1,0c-5,2.1-12.6,3.6-22.1,3.6s-17-1.6-22.1-3.6c0,0-0.1,0-0.1,0
				C82.5,70.1,81.4,69.5,80.4,68.9z M80.6,74.3v4.6c-1.3-0.7-2.6-1-3.7-1.2v-5.4C78,72.9,79.2,73.6,80.6,74.3z M131.4,74.3
				c1.4-0.7,2.7-1.4,3.7-2.1v5.4c-1.1,0.2-2.4,0.6-3.7,1.2V74.3z M88.9,111.5c-4.8-4.1-7.6-10.3-7.8-17c0-1.3-1.1-2.3-2.3-2.3h-1.9
				c-1.4,0-2.6-1.2-2.6-2.6v-5.5c0-0.8,0.4-1.5,1-2c0.8,0.1,2.4,0.3,3.7,1.2c0,0,0,0,0,0c0.2,0.1,0.4,0.3,0.5,0.4c0,0,0,0,0.1,0.1
				c0.1,0.1,0.2,0.1,0.2,0.2c0.1,0.1,0.1,0.1,0.2,0.2c0,0,0,0,0.1,0.1c0.1,0,0.1,0.1,0.2,0.1c0,0,0,0,0.1,0c0.1,0.1,0.2,0.1,0.2,0.1
				c0,0,0,0,0,0c0.1,0,0.2,0.1,0.3,0.1c0,0,0,0,0.1,0c0.1,0,0.1,0,0.2,0.1c0,0,0.1,0,0.1,0c0.1,0,0.2,0,0.3,0.1c0,0,0,0,0,0
				c0.1,0,0.2,0,0.3,0c0,0,0.1,0,0.1,0c0.1,0,0.1,0,0.2,0c0,0,0,0,0,0c0,0,0,0,0,0c0.1,0,0.2,0,0.3,0c0,0,0,0,0,0c0.1,0,0.2,0,0.3,0
				c0,0,0.1,0,0.1,0c0.1,0,0.1,0,0.2-0.1c0,0,0.1,0,0.1,0c0.1,0,0.2-0.1,0.3-0.1c1.2-0.5,2-1.7,2-3v-5.6C91.4,78,98.8,79,106,79
				c7.2,0,14.6-1,20.7-2.9v5.6c0,1.3,0.8,2.5,2,3c0.1,0,0.2,0.1,0.3,0.1c0,0,0.1,0,0.1,0c0.1,0,0.1,0,0.2,0.1c0,0,0,0,0.1,0
				c0.2,0,0.4,0.1,0.6,0.1c0,0,0,0,0,0c0,0,0,0,0,0c0.1,0,0.1,0,0.2,0c0,0,0,0,0.1,0c0.2,0,0.4-0.1,0.6-0.1c0,0,0,0,0.1,0
				c0.1,0,0.1,0,0.2-0.1c0,0,0,0,0.1,0c0.1,0,0.2-0.1,0.3-0.1c0,0,0,0,0,0c0.1,0,0.2-0.1,0.2-0.1c0,0,0,0,0.1,0
				c0.1,0,0.1-0.1,0.2-0.1c0,0,0,0,0.1-0.1c0.1-0.1,0.1-0.1,0.2-0.2c0.1-0.1,0.2-0.2,0.2-0.2c0,0,0,0,0.1-0.1
				c0.1-0.1,0.2-0.1,0.2-0.2c0,0,0,0,0,0c0.1-0.1,0.2-0.1,0.3-0.2c0,0,0,0,0.1,0c0.1,0,0.2-0.1,0.2-0.1c0,0,0,0,0,0
				c0.1-0.1,0.2-0.1,0.3-0.1c0,0,0,0,0.1,0c0.1,0,0.2-0.1,0.3-0.1c0,0,0,0,0,0c0.1,0,0.2-0.1,0.3-0.1c0,0,0,0,0.1,0
				c0.1,0,0.2-0.1,0.3-0.1c0,0,0,0,0,0c0.1,0,0.2-0.1,0.3-0.1c0,0,0,0,0,0c0.7-0.2,1.4-0.3,1.8-0.3c0.6,0.5,1,1.2,1,2v5.5
				c0,1.4-1.2,2.6-2.6,2.6h-1.9c-1.3,0-2.3,1-2.3,2.3c-0.1,6.7-3,12.9-7.8,17c-5,4.3-10.7,6.5-17.1,6.6
				C99.6,118,93.9,115.8,88.9,111.5z M94.4,143.3c-0.4,0.2-0.8,0-1-0.3l-9.5-13.2l2.5-0.5c0.1,0,0.3,0,0.4,0.1l0.6,0.5c0,0,0,0,0,0
				l14,10.5L94.4,143.3z M100.3,183.3l4.3-30.7h2.9l4.3,30.7H100.3z M160,183.3h-9.4v-19c0-1.3-1-2.3-2.3-2.3c-1.3,0-2.3,1-2.3,2.3
				v19h-29.5L112,151l3.1-3.6l0.7,0.3c0.7,0.3,1.5,0.4,2.2,0.4c1.7,0,3.4-0.8,4.5-2.3l10.7-15l13.5,2.5c0.7,0.2,1.4,0.5,2.1,0.7
				c-2.5,2.8-2.7,7-0.3,10l2.6,3.2c1.3,1.6,3.1,2.6,5.2,2.8c0.3,0,0.6,0,0.8,0c1.7,0,3.4-0.6,4.8-1.7c0.7,2.1,1,4.4,1,6.7v25.4h0
				C162.9,182,161.6,183.3,160,183.3z"/>
		</g>
	</g>
	<g>
		<g>
			<path class="st0" d="M138,162h-12.3c-2.1,0-3.8,1.7-3.8,3.8v6.6c0,2.1,1.7,3.8,3.8,3.8H138c2.1,0,3.8-1.7,3.8-3.8v-6.6
				C141.8,163.7,140.1,162,138,162z M126.5,171.5v-4.9h10.6v4.9H126.5z"/>
		</g>
	</g>
	<g>
		<g>
			<path class="st0" d="M86.3,162H74c-2.1,0-3.8,1.7-3.8,3.8v6.6c0,2.1,1.7,3.8,3.8,3.8h12.3c2.1,0,3.8-1.7,3.8-3.8v-6.6
				C90.2,163.7,88.5,162,86.3,162z M85.5,171.5H74.9v-4.9h10.6V171.5z"/>
		</g>
	</g>
</g>
</svg>
