<?xml version="1.0" encoding="utf-8"?>
<!-- Generator: Adobe Illustrator 21.0.0, SVG Export Plug-In . SVG Version: 6.00 Build 0)  -->
<svg version="1.1" id="Camada_1" xmlns="http://www.w3.org/2000/svg" xmlns:xlink="http://www.w3.org/1999/xlink" x="0px" y="0px"
	 viewBox="0 0 213 213" style="enable-background:new 0 0 213 213;" xml:space="preserve">
<style type="text/css">
	.st0{fill:#A50112;}
</style>
<g id="Page-1">
	<g id="_x30_08---Parasol">
		<path id="Shape" class="st0" d="M41.5,57.3l16,11.4c1.8,1.3,4.2,1.4,6.1,0.4l4.8-2.5L67.5,72c-0.4,2.2,0.6,4.4,2.4,5.6l22.2,15.9
			l-30.7,43.1c-24.5,5.2-39.2,15.3-39.2,27.2c0,17.1,32,30.6,72.8,30.6s72.8-13.4,72.8-30.6s-32-30.6-72.8-30.6
			c-3.3,0-6.7,0.1-10,0.3l21.3-29.9l22.2,15.9c1.8,1.3,4.2,1.4,6.1,0.4l4.8-2.5l-0.8,5.3c-0.3,2.2,0.6,4.4,2.4,5.6l16,11.4
			c1.8,1.3,4.2,1.4,6.1,0.4l9.9-5.3c0.4-0.2,0.7-0.5,0.9-0.8c0.2-0.6,15.1-17.5,4.4-47.9c-6.1-16.3-16.5-30.6-30-41.5l5.3-7.4
			c1.4-1.9,1.9-4.2,1.5-6.5c-0.3-2.3-1.6-4.4-3.5-5.7c-3.9-2.8-9.4-1.9-12.2,2l-5.3,7.4c-14.7-9.2-31.7-14.4-49-14.8h-0.5
			c-18.9,0-34.3,7-43.4,19.7c-0.2,0.4-0.4,0.8-0.5,1.2l-1.7,11.1C38.7,53.9,39.6,56.1,41.5,57.3L41.5,57.3z M60.9,64l-16-11.4l1-6.4
			L66.6,61L60.9,64z M138.1,44c17.7,12.6,19.4,40.8,4.4,63.9l-33.1-23.6L76.3,60.7C93.2,39,120.4,31.4,138.1,44z M96.9,96.9l4.7,3.4
			l-45.6,64c-0.6,0.9-1.6,1.3-2.7,1.2c-1-0.1-2-0.7-2.4-1.7c-0.4-1-0.3-2.1,0.3-2.9l14.3-20.1l0,0L96.9,96.9z M95,139
			c40.1,0,67,12.8,67,24.7s-26.9,24.7-67,24.7s-67-12.8-67-24.7c0-7.8,10.8-15.3,28.2-20l-9.8,13.7c-2.8,3.9-1.9,9.4,2,12.2
			s9.4,1.9,12.2-2l19.9-28C85.5,139.2,90.3,139,95,139z M132,114.7l-27.5-19.6l-6.6-4.7L73.3,72.9l1-6.4L106,89.1l31.7,22.6
			L132,114.7z M160.4,135l-16-11.4l1-6.4l20.8,14.8L160.4,135z M170.9,128.2l-23.7-16.9c10.8-16.5,13.7-35.6,9-50.9
			c7.3,8.1,12.9,17.5,16.7,27.7C178.2,103.1,177.5,117.3,170.9,128.2z M144.2,30.5c0.4-0.6,1.1-1,1.9-1.2c0.8-0.1,1.5,0,2.2,0.5
			c0.6,0.5,1.1,1.2,1.2,1.9c0.1,0.7,0,1.5-0.5,2.1l-5.1,7.2c-0.8-0.6-1.5-1.2-2.3-1.8c-0.8-0.6-1.6-1.1-2.4-1.6L144.2,30.5z
			 M84.7,25.5h0.4c10.9,0.2,21.6,2.5,31.6,6.7c-16,0.6-33.1,9.5-45.2,25.1L47.9,40.4C56,30.8,68.9,25.5,84.7,25.5z"/>
		<circle id="Oval" class="st0" cx="132.7" cy="159.4" r="2.9"/>
		<circle id="Oval_1_" class="st0" cx="124" cy="153.6" r="2.9"/>
		<circle id="Oval_2_" class="st0" cx="118.2" cy="162.3" r="2.9"/>
		<path id="Shape_1_" class="st0" d="M90.5,179.8c5.6,0,10.2-4.6,10.2-10.2s-4.6-10.2-10.2-10.2c-5.6,0-10.2,4.6-10.2,10.2
			S84.9,179.8,90.5,179.8z M90.5,165.2c2.4,0,4.4,2,4.4,4.4c0,2.4-2,4.4-4.4,4.4c-2.4,0-4.4-2-4.4-4.4
			C86.2,167.2,88.1,165.2,90.5,165.2z"/>
	</g>
</g>
</svg>
