<?xml version="1.0" encoding="utf-8"?>
<!-- Generator: Adobe Illustrator 21.0.0, SVG Export Plug-In . SVG Version: 6.00 Build 0)  -->
<svg version="1.1" id="Camada_1" xmlns="http://www.w3.org/2000/svg" xmlns:xlink="http://www.w3.org/1999/xlink" x="0px" y="0px"
	 viewBox="0 0 213 213" style="enable-background:new 0 0 213 213;" xml:space="preserve">
<style type="text/css">
	.st0{fill:#A50112;}
</style>
<g>
	<path class="st0" d="M105,77.9c5.2-5.2,5.2-13.7,0-19l-28-28C74.4,28.4,71,27,67.4,27c-3.6,0-6.9,1.4-9.5,3.9l-28,28
		c-2.5,2.5-3.9,5.9-3.9,9.5c0,3.6,1.4,6.9,3.9,9.5l28,28c2.5,2.5,5.9,3.9,9.5,3.9c1.1,0,2.1-0.1,3.1-0.4v71.2h-6.3v-50.3
		c0-1.7-1.4-3.1-3.1-3.1c-1.7,0-3.1,1.4-3.1,3.1v53.4c0,1.7,1.4,3.1,3.1,3.1h12.5c1.7,0,3.1-1.4,3.1-3.1V107c0-0.3,0-0.6-0.1-0.8
		c0.1-0.1,0.1-0.1,0.2-0.2L105,77.9z M62.4,101.6l-28-28c-1.4-1.4-2.1-3.1-2.1-5.1c0-1.9,0.7-3.7,2.1-5.1l28-28
		c1.4-1.4,3.1-2.1,5.1-2.1c1.9,0,3.7,0.7,5.1,2.1l28,28c2.8,2.8,2.8,7.3,0,10.1l-28,28C69.7,104.3,65.2,104.3,62.4,101.6z"/>
	<path class="st0" d="M91.3,77.6c1.7,0,3.1-1.4,3.1-3.1V62c0-1.7-1.4-3.1-3.1-3.1c-1.7,0-3.1,1.4-3.1,3.1v12.5
		C88.2,76.2,89.6,77.6,91.3,77.6z"/>
	<path class="st0" d="M49.1,58.9h-5.9c-1.7,0-3.1,1.4-3.1,3.1c0,1.7,1.3,3,3,3.1v9.4c0,1.7,1.4,3.1,3.1,3.1c1.7,0,3.1-1.4,3.1-3.1
		v-9.4c1.6-0.1,3-1.4,3-3.1C52.2,60.3,50.8,58.9,49.1,58.9z"/>
	<path class="st0" d="M73.4,77.6c0.5,0.3,1,0.4,1.5,0.4c1.1,0,2.2-0.6,2.7-1.6l0.8-1.5l0.8,1.5c0.6,1,1.6,1.6,2.7,1.6
		c0.5,0,1-0.1,1.5-0.4c1.5-0.8,2.1-2.7,1.2-4.2L82,68.4l2.7-4.9c0.8-1.5,0.3-3.4-1.2-4.2c-1.5-0.8-3.4-0.3-4.2,1.2L78.5,62l-0.8-1.5
		c-0.8-1.5-2.7-2.1-4.2-1.2c-1.5,0.8-2.1,2.7-1.2,4.2l2.7,4.9l-2.7,4.9C71.3,74.9,71.9,76.8,73.4,77.6z"/>
	<path class="st0" d="M64.4,61c-0.4-1.3-1.6-2.1-2.9-2.1s-2.5,0.8-2.9,2.1L54,73.8c-0.6,1.6,0.3,3.4,1.9,4c1.6,0.6,3.4-0.3,4-1.9
		l1.6-4.5l1.6,4.5c0.5,1.3,1.7,2.1,2.9,2.1c0.3,0,0.7-0.1,1-0.2c1.6-0.6,2.5-2.4,1.9-4L64.4,61z"/>
	<path class="st0" d="M63.4,120.8c0.6-0.6,0.9-1.4,0.9-2.2s-0.3-1.6-0.9-2.2c-0.6-0.6-1.4-0.9-2.2-0.9c-0.8,0-1.6,0.3-2.2,0.9
		c-0.6,0.6-0.9,1.4-0.9,2.2s0.3,1.6,0.9,2.2c0.6,0.6,1.4,0.9,2.2,0.9C62,121.7,62.8,121.4,63.4,120.8z"/>
	<path class="st0" d="M182.9,136.5c1.7,0,3.1-1.4,3.1-3.1s-1.4-3.1-3.1-3.1h-5.2c-1.1,0-2.2,0.6-2.7,1.6l-0.7,1.2l-3.4-12.3
		c-1.9-6.6-8-11.3-14.9-11.3h-7.5v-9.4c0-1.7-1.4-3.1-3.1-3.1h-25c-1.7,0-3.1,1.4-3.1,3.1v9.4h-7.5c-6.9,0-13,4.6-14.9,11.3
		l-3.5,12.3l-0.6-1.2c-0.5-1-1.6-1.6-2.7-1.6h-5.2c-1.7,0-3.1,1.4-3.1,3.1s1.4,3.1,3.1,3.1h3.3l1.7,3.1c-4.8,2.3-8.1,7.1-8.1,12.8
		v12.8c0,5.2,4.2,9.4,9.4,9.4h1.6v5.3c0,4,3.2,7.2,7.2,7.2h4.9c4,0,7.2-3.2,7.2-7.2v-5.3h45.8v5.3c0,4,3.2,7.2,7.2,7.2h4.9
		c4,0,7.2-3.2,7.2-7.2v-5.3h1.6c5.2,0,9.4-4.2,9.4-9.4v-12.8c0-5.6-3.3-10.5-8.1-12.8l1.7-3.1H182.9z M164.8,122.5l4.4,15.8h-33.9
		l22.3-22.3C161,116.5,163.9,119.1,164.8,122.5z M145.4,115.8h3.6l-22.5,22.5h-12.2l22.5-22.5H145.4z M123.5,103.3h18.8v6.3h-6.8
		c0,0,0,0,0,0h-12L123.5,103.3L123.5,103.3z M100.9,122.5c1.1-3.9,4.7-6.7,8.8-6.7h18.2l-22.5,22.5h-9L100.9,122.5z M103.7,179.8
		c0,0.5-0.4,0.9-0.9,0.9h-4.9c-0.5,0-0.9-0.4-0.9-0.9v-5.3h6.8V179.8z M168.8,179.8c0,0.5-0.4,0.9-0.9,0.9h-4.9
		c-0.5,0-0.9-0.4-0.9-0.9v-5.3h6.8V179.8z M179.7,165.1c0,1.7-1.4,3.1-3.1,3.1H89.1c-1.7,0-3.1-1.4-3.1-3.1v-12.8
		c0-4.3,3.5-7.9,7.9-7.9h78c4.3,0,7.9,3.5,7.9,7.9V165.1z"/>
	<path class="st0" d="M98.2,153.3c-0.8,0-1.6,0.3-2.2,0.9c-0.6,0.6-0.9,1.4-0.9,2.2s0.3,1.6,0.9,2.2c0.6,0.6,1.4,0.9,2.2,0.9
		c0.8,0,1.6-0.3,2.2-0.9s0.9-1.4,0.9-2.2s-0.3-1.6-0.9-2.2S99,153.3,98.2,153.3z"/>
	<path class="st0" d="M150.7,153.3H115c-1.7,0-3.1,1.4-3.1,3.1s1.4,3.1,3.1,3.1h35.6c1.7,0,3.1-1.4,3.1-3.1S152.4,153.3,150.7,153.3
		z"/>
	<path class="st0" d="M167.5,153.3c-0.8,0-1.6,0.3-2.2,0.9c-0.6,0.6-0.9,1.4-0.9,2.2s0.3,1.6,0.9,2.2c0.6,0.6,1.4,0.9,2.2,0.9
		c0.8,0,1.6-0.3,2.2-0.9s0.9-1.4,0.9-2.2s-0.3-1.6-0.9-2.2S168.4,153.3,167.5,153.3z"/>
</g>
</svg>
