<?xml version="1.0" encoding="utf-8"?>
<!-- Generator: Adobe Illustrator 22.1.0, SVG Export Plug-In . SVG Version: 6.00 Build 0)  -->
<svg version="1.1" id="Camada_1" xmlns="http://www.w3.org/2000/svg" xmlns:xlink="http://www.w3.org/1999/xlink" x="0px" y="0px"
	 viewBox="0 0 213 213" style="enable-background:new 0 0 213 213;" xml:space="preserve">
<style type="text/css">
	.st0{fill:#A50112;}
</style>
<path class="st0" d="M188.5,66.5c0-0.1,0-0.3,0-0.3v-20c0-1.4-1.1-2.5-2.5-2.5H26c-1.4,0-2.5,1.1-2.5,2.5l0,19.9c0,0.1,0,0.3,0,0.4
	v20.2c0,0.1,0,0.3,0,0.3l0,39.8c0,0.1,0,0.3,0,0.4v20.2c0,0.1,0,0.3,0,0.3v19.9c0,1.4,1.1,2.5,2.5,2.5H186c1.4,0,2.5-1.1,2.5-2.5
	l0-19.8c0-0.1,0-0.3,0-0.4v-20.2c0-0.1,0-0.3,0-0.3l0-39.8c0-0.1,0-0.3,0-0.4V66.5z M183.5,149.9v15.2h-15.2v-15.2H183.5z
	 M43.6,149.9v15.2H28.5v-15.2H43.6z M28.5,63.9V48.7h15.1v15.2H28.5z M168.3,63.9V48.7h15.2v15.2H168.3z M183.5,69v15.2h-35V69
	H183.5z M128.4,63.9V48.7h34.8v15.2H128.4z M168.3,104.4V89.2h15.2v15.2H168.3z M168.3,124.6v-15.2h15.2v15.2H168.3z M183.5,129.7
	v15.2h-35v-15.2H183.5z M163.2,149.9v15.2h-34.8v-15.2H163.2z M143.5,129.7v15.2h-35v-15.2H143.5z M123.4,149.9v15.2H88.5v-15.2
	H123.4z M103.5,129.7v15.2h-35v-15.2H103.5z M43.6,109.4v15.2H28.5v-15.2H43.6z M43.6,89.2v15.2H28.5V89.2H43.6z M28.5,84.2V69h35
	v15.2H28.5z M48.7,63.9V48.7h34.8v15.2H48.7z M68.5,84.2V69h35v15.2H68.5z M88.5,63.9V48.7h34.8v15.2H88.5z M108.5,84.2V69h35v15.2
	H108.5z M128.4,104.4V89.2h34.8v15.2H128.4z M163.2,109.4v15.2h-34.8v-15.2H163.2z M123.4,109.4v15.2H88.5v-15.2H123.4z M88.5,104.4
	V89.2h34.8v15.2H88.5z M83.5,109.4v15.2H48.7v-15.2H83.5z M48.7,104.4V89.2h34.8v15.2H48.7z M83.5,149.9v15.2H48.7v-15.2H83.5z
	 M63.5,129.7v15.2h-35v-15.2H63.5z"/>
</svg>
