<?xml version="1.0" encoding="utf-8"?>
<!-- Generator: Adobe Illustrator 21.0.0, SVG Export Plug-In . SVG Version: 6.00 Build 0)  -->
<svg version="1.1" id="Camada_1" xmlns="http://www.w3.org/2000/svg" xmlns:xlink="http://www.w3.org/1999/xlink" x="0px" y="0px"
	 viewBox="0 0 213 213" style="enable-background:new 0 0 213 213;" xml:space="preserve">
<style type="text/css">
	.st0{fill:#A50112;}
</style>
<g>
	<path class="st0" d="M170,66.9V56.3c0-1.5-1.2-2.7-2.7-2.7h-9.9l-10.8-7.2c4.9-3.3,6.1-10,2.8-14.8c-3.3-4.9-10-6.1-14.8-2.8
		c-2.9,2-4.6,5.3-4.6,8.8c0,1.5,1.2,2.7,2.7,2.7c1.5,0,2.7-1.2,2.7-2.7c0-2.9,2.4-5.3,5.3-5.3s5.3,2.4,5.3,5.3
		c0,2.9-2.4,5.3-5.3,5.3l0,0c-0.5,0-1,0.2-1.5,0.4l-15.3,10.2H114c0,0-0.1,0-0.1,0c-0.1,0-0.2,0-0.2,0h-12.2l-10.8-7.2
		c4.9-3.3,6.1-10,2.8-14.8c-3.3-4.9-10-6.1-14.8-2.8c-2.9,2-4.7,5.3-4.6,8.8c0,1.5,1.2,2.7,2.7,2.7s2.7-1.2,2.7-2.7
		c0-2.9,2.4-5.3,5.3-5.3s5.3,2.4,5.3,5.3c0,2.9-2.4,5.3-5.3,5.3l0,0c-0.5,0-1,0.2-1.5,0.4L67.9,53.7H55.7c-6.1,0-11.5,4.2-12.9,10.1
		c0,0.1,0,0.2-0.1,0.3l-6,39.9c0,0.1,0,0.3,0,0.4v53.3c0,1.5,1.2,2.7,2.7,2.7h16c1.5,0,2.7-1.2,2.7-2.7V155h16
		c1.5,0,2.7-1.2,2.7-2.7v-2.7h16v2.7c0,1.5,1.2,2.7,2.7,2.7h12l-1.3,29.2c-0.1,1.5,1.1,2.7,2.5,2.8c0,0,0.1,0,0.1,0h64
		c1.5,0,2.7-1.2,2.7-2.7c0,0,0-0.1,0-0.1L170,66.9z M165.1,77.4c-2.1-0.6-3.6-2.1-4.6-4.6c-0.4-1-0.7-2.1-0.9-3.1h5.2L165.1,77.4z
		 M164.7,64.3h-38l0-0.3c0-0.1,0-0.2-0.1-0.3c-0.4-1.7-1.2-3.3-2.3-4.8h40.3V64.3z M140.7,48.9l7.2,4.8h-14.4L140.7,48.9z M108.2,59
		l-1.2,8c-0.4,2.7-2.9,4.5-5.6,4.1c-1.3-0.2-2.4-0.9-3.2-1.9c2.7-2.8,4.4-6.4,5-10.2H108.2z M71.6,59h26.1
		c-1.5,7.2-8.5,11.9-15.7,10.4C76.8,68.3,72.7,64.2,71.6,59L71.6,59z M84.7,48.9l7.2,4.8H77.5L84.7,48.9z M66.2,59
		c0.6,3.8,2.3,7.4,5,10.2c-1.6,2.2-4.7,2.6-6.9,1c-1-0.8-1.7-1.9-1.9-3.2l-1.2-8H66.2z M71.3,149.7H58V99c0-1.5-1.2-2.7-2.7-2.7
		c-1.5,0-2.7,1.2-2.7,2.7v56H42v-50.5l5.9-39.6c0.9-3.5,4.1-5.9,7.7-5.9h0.1l1.4,8.8c0.6,4.4,4.1,7.9,8.6,8.6
		c1.9,0.3,3.9,0.1,5.7-0.7V149.7z M76.7,144.3V73.2c5.1,2.4,10.9,2.4,16,0v71.1H76.7z M98,75.7c1.8,0.8,3.8,1,5.7,0.7
		c4.4-0.6,7.9-4.1,8.6-8.6l1.4-8.8h0.1c3.6,0,6.8,2.4,7.7,5.9l5.9,39.6V155h-10.7V99c0-1.5-1.2-2.7-2.7-2.7s-2.7,1.2-2.7,2.7v50.7
		H98V75.7z M138,181.7h-26.5l1-21.8c0.5,0.3,1,0.5,1.6,0.5h16c1.5,0,2.7-1.2,2.7-2.7v-53.3c0-0.1,0-0.3,0-0.4l-5.1-34.3H138V181.7z
		 M143.3,181.7v-112h10.9c0.2,1.7,0.7,3.4,1.3,5c1.9,4.7,5.3,7.6,9.9,8.2l4.5,98.8H143.3z"/>
</g>
</svg>
