<?xml version="1.0" encoding="utf-8"?>
<!-- Generator: Adobe Illustrator 21.0.0, SVG Export Plug-In . SVG Version: 6.00 Build 0)  -->
<svg version="1.1" id="Camada_1" xmlns="http://www.w3.org/2000/svg" xmlns:xlink="http://www.w3.org/1999/xlink" x="0px" y="0px"
	 viewBox="0 0 213 213" style="enable-background:new 0 0 213 213;" xml:space="preserve">
<style type="text/css">
	.st0{fill:#A50112;}
</style>
<g>
	<path class="st0" d="M131.1,75.5l2.6-4.4l4.4,2.6l-2.6,4.4L131.1,75.5z"/>
	<path class="st0" d="M140,80.8l2.6-4.4l4.4,2.6l-2.6,4.4L140,80.8z"/>
	<path class="st0" d="M122.2,70.2l2.6-4.4l4.4,2.6l-2.6,4.4L122.2,70.2z"/>
	<path class="st0" d="M54.1,86.7l5.2-3.1l2.6,4.4l-5.2,3.1L54.1,86.7z"/>
	<path class="st0" d="M61.8,82.1l28.4-16.9l2.6,4.4L64.5,86.5L61.8,82.1z"/>
	<path class="st0" d="M186.7,76.1c-0.7-2.7-2.4-4.9-4.7-6.3l-10.4-6.2V34.8h-20.6v16.5l-37.8-22.5c-3.7-2.2-8.5-2.2-12.2,0L32,69.8
		c-2.4,1.4-4.1,3.7-4.7,6.3c-0.7,2.7-0.3,5.5,1.1,7.8c1.9,3.1,5.3,5.1,8.9,5.1c1.9,0,3.7-0.5,5.3-1.4l2.5-1.5v69.7l-15,14.3
		c-1.9,1.8-3,4.4-3,7.1c0,5.4,4.4,9.8,9.8,9.8c2.7,0,5.3-1.1,7.1-3l4.5-4.7H76v7.7H169v-10.3v-2.6V86l2.5,1.5
		c1.6,0.9,3.4,1.4,5.3,1.4c3.6,0,7-1.9,8.9-5.1C187,81.5,187.4,78.8,186.7,76.1z M156,39.9h10.3v20.5L156,54.3V39.9z M40.2,180.4
		c-0.9,0.9-2.1,1.4-3.4,1.4c-2.6,0-4.6-2.1-4.6-4.6c0-1.3,0.5-2.5,1.4-3.4l52.7-50.3l4.2,4.2L40.2,180.4z M70.9,111.1l-1.5-1.5
		c-0.7-0.7-1.1-1.6-1.1-2.6s0.4-1.9,1.1-2.6l24.7-24.7c0.7-0.7,1.6-1.1,2.6-1.1c1,0,1.9,0.4,2.6,1.1l1.5,1.5L70.9,111.1z M99.3,90
		l24.7,24.7l-19.6,19.6l-24.7-24.7L99.3,90z M153.5,161.2H91.5v-2.6c0-4.3,3.5-7.7,7.7-7.7h46.5c4.3,0,7.7,3.5,7.7,7.7V161.2z
		 M104.4,144.7l-1.5-1.5l29.9-29.9l1.5,1.5c0.7,0.7,1.1,1.6,1.1,2.6s-0.4,1.9-1.1,2.6l-24.7,24.7C108.2,146,105.8,146,104.4,144.7z
		 M76,174.1H53.3l40.8-42.8l6.6,6.6l-5.2,5.2l2.7,2.7c-6.7,0.5-11.9,6-11.9,12.8v2.8C80.5,162.7,76,167.9,76,174.1L76,174.1z
		 M163.8,181.9H81.2v-7.7c0-4.3,3.5-7.7,7.7-7.7H156c4.3,0,7.7,3.5,7.7,7.7v2.6V181.9z M163.8,163.9c-1.5-1.1-3.2-2-5.2-2.4v-2.8
		c0-7.1-5.8-12.9-12.9-12.9h-29.9l22.2-22.2c1.7-1.7,2.6-3.9,2.6-6.2c0-2.4-0.9-4.6-2.6-6.2l-5.2-5.2l-5.2,5.2l-24.7-24.7l5.2-5.2
		l-5.2-5.2c-3.3-3.3-9.1-3.3-12.5,0l-24.7,24.7c-1.7,1.7-2.6,3.9-2.6,6.2s0.9,4.6,2.6,6.2l5.2,5.2l5.2-5.2l6.6,6.6l-32.4,31V83
		l53.3-31.8c2.1-1.2,4.9-1.2,7,0L163.8,83V163.9z M181.1,81.3c-1.4,2.4-4.7,3.2-7.1,1.8l-60.9-36.3c-1.9-1.1-4-1.7-6.1-1.7
		c-2.2,0-4.3,0.6-6.1,1.7L39.9,83.1c-2.4,1.4-5.7,0.5-7.1-1.8c-0.7-1.2-0.9-2.6-0.6-3.9c0.3-1.3,1.2-2.5,2.4-3.2l68.8-41.1
		c2.1-1.3,4.9-1.3,7,0l68.8,41.1c1.2,0.7,2,1.8,2.4,3.2S181.8,80.1,181.1,81.3L181.1,81.3z"/>
	<path class="st0" d="M132.8,171.6h5.2v5.2h-5.2V171.6z"/>
	<path class="st0" d="M143.1,171.6h5.2v5.2h-5.2V171.6z"/>
	<path class="st0" d="M153.5,171.6h5.2v5.2h-5.2V171.6z"/>
	<path class="st0" d="M153.5,117.4h5.2v5.2h-5.2V117.4z"/>
	<path class="st0" d="M153.5,138h5.2v5.2h-5.2V138z"/>
	<path class="st0" d="M153.5,127.7h5.2v5.2h-5.2V127.7z"/>
</g>
</svg>
