<?xml version="1.0" encoding="utf-8"?>
<!-- Generator: Adobe Illustrator 21.0.0, SVG Export Plug-In . SVG Version: 6.00 Build 0)  -->
<svg version="1.1" id="Camada_1" xmlns="http://www.w3.org/2000/svg" xmlns:xlink="http://www.w3.org/1999/xlink" x="0px" y="0px"
	 viewBox="0 0 213 213" style="enable-background:new 0 0 213 213;" xml:space="preserve">
<style type="text/css">
	.st0{fill:#A50112;}
</style>
<g id="XMLID_1126_">
	<path id="XMLID_1281_" class="st0" d="M188.4,82.7l-80.9-56.3c-0.9-0.6-2.1-0.6-3,0L23.6,82.7c-0.9,0.7-1.4,1.9-1,3
		c0.3,1.1,1.4,1.8,2.5,1.8H33v95.8c0,1.5,1.2,2.6,2.6,2.6h24.6c1.5,0,2.6-1.2,2.6-2.6V87.5h86.2v95.8c0,1.5,1.2,2.6,2.6,2.6h24.6
		c1.5,0,2.6-1.2,2.6-2.6V87.5h7.9c1.2,0,2.2-0.7,2.5-1.8C189.7,84.6,189.3,83.4,188.4,82.7z M106,31.9l72.5,50.4H33.5L106,31.9z
		 M38.3,180.7v-33.4h19.3v33.4H38.3z M57.6,142H38.3V87.5h19.3C57.6,87.5,57.6,142,57.6,142z M154.4,180.7v-33.4h19.3v33.4H154.4z
		 M173.7,142h-19.3V87.5h19.3V142z"/>
	<path id="XMLID_1_" class="st0" d="M97.3,76.9c2.1,1.1,4.5,1.5,6.6,1.5c2.7,0,5.3-0.7,7-1.8c2.5-1.6,8-6.7,4.2-19.8
		c-0.2-0.9-0.9-1.6-1.8-1.8c-0.9-0.3-1.8,0-2.5,0.6l-1.4,1.2c-0.3-4.6-1.6-10.5-5.9-13.2c-1.1-0.7-2.5-0.5-3.4,0.5
		c-0.4,0.5-10.6,11.8-9.6,22.7C91,71.3,93.3,74.9,97.3,76.9z M102.3,49.7c2.1,3.6,2.1,10.2,1.8,12.7c-0.1,1.1,0.4,2.1,1.4,2.6
		c1,0.5,2.1,0.3,3-0.4l2.5-2.2c0.6,4.6-0.4,8.1-2.8,9.6c-1.8,1.1-5.6,1.5-8.5,0C97.3,71,96,69,95.8,66.2
		C95.3,60.1,99.7,53.2,102.3,49.7z"/>
	<path id="XMLID_1301_" class="st0" d="M92.8,149.3c0,1.5,1.2,2.6,2.6,2.6h21.1c1.5,0,2.6-1.2,2.6-2.6c0-1.5-1.2-2.6-2.6-2.6H95.5
		C94,146.6,92.8,147.8,92.8,149.3z"/>
	<path id="XMLID_1302_" class="st0" d="M116.5,153.6H95.5c-1.5,0-2.6,1.2-2.6,2.6s1.2,2.6,2.6,2.6h21.1c1.5,0,2.6-1.2,2.6-2.6
		C119.2,154.8,118,153.6,116.5,153.6z"/>
	<path id="XMLID_1303_" class="st0" d="M84.9,153.6c-0.7,0-1.4,0.3-1.9,0.8c-0.5,0.5-0.8,1.2-0.8,1.9c0,0.7,0.3,1.4,0.8,1.9
		c0.5,0.5,1.2,0.8,1.9,0.8s1.4-0.3,1.9-0.8c0.5-0.5,0.8-1.2,0.8-1.9c0-0.7-0.3-1.4-0.8-1.9C86.3,153.9,85.6,153.6,84.9,153.6z"/>
	<path id="XMLID_1304_" class="st0" d="M127.1,158.9c0.7,0,1.4-0.3,1.9-0.8c0.5-0.5,0.8-1.2,0.8-1.9c0-0.7-0.3-1.4-0.8-1.9
		c-0.5-0.5-1.2-0.8-1.9-0.8c-0.7,0-1.4,0.3-1.9,0.8c-0.5,0.5-0.8,1.2-0.8,1.9c0,0.7,0.3,1.4,0.8,1.9
		C125.7,158.6,126.4,158.9,127.1,158.9z"/>
	<path id="XMLID_1307_" class="st0" d="M141.2,125.5h-4.4v-0.9c0-5.3-4.3-9.7-9.7-9.7h-11.4v-2.4c0-4.5-3.7-8.1-8.1-8.1h-3
		c-4.5,0-8.1,3.7-8.1,8.1v2.4H84.9c-5.3,0-9.7,4.3-9.7,9.7v0.9h-4.4c-1.5,0-2.6,1.2-2.6,2.6v14.1c0,1.5,1.2,2.6,2.6,2.6h4.4v18
		c-2.1,1.3-3.5,3.6-3.5,6.3c0,3.7,2.8,6.8,6.3,7.3v2.2c0,4.1,3.3,7.4,7.4,7.4s7.4-3.3,7.4-7.4v-2.1h26.4v2.1c0,4.1,3.3,7.4,7.4,7.4
		c4.1,0,7.4-3.3,7.4-7.4v-2.2c3.6-0.5,6.3-3.6,6.3-7.3c0-2.7-1.4-5-3.5-6.3v-18h4.4c1.5,0,2.6-1.2,2.6-2.6v-14.1
		C143.8,126.7,142.6,125.5,141.2,125.5z M131.5,160.7h-51v-19.3h51V160.7z M131.5,124.6v11.4h-22.9v-15.8h18.5
		C129.5,120.2,131.5,122.2,131.5,124.6z M101.6,112.6c0-1.6,1.3-2.9,2.9-2.9h3c1.6,0,2.9,1.3,2.9,2.9v2.4h-8.8L101.6,112.6
		L101.6,112.6z M80.5,124.6c0-2.4,2-4.4,4.4-4.4h18.5v15.8H80.5V124.6z M73.5,139.6v-8.8h1.8v8.8H73.5z M87.5,178.6
		c0,1.2-0.9,2.1-2.1,2.1s-2.1-0.9-2.1-2.1v-2.1h4.2L87.5,178.6L87.5,178.6z M128.7,178.6c0,1.2-0.9,2.1-2.1,2.1s-2.1-0.9-2.1-2.1
		v-2.1h4.2L128.7,178.6L128.7,178.6z M132.9,171.2H79.1c-1.2,0-2.1-0.9-2.1-2.1c0-1.2,0.9-2.1,2.1-2.1h53.8c1.2,0,2.1,0.9,2.1,2.1
		C135,170.3,134.1,171.2,132.9,171.2z M138.5,139.6h-1.8v-8.8h1.8V139.6z"/>
</g>
</svg>
