<?xml version="1.0" encoding="utf-8"?>
<!-- Generator: Adobe Illustrator 21.0.0, SVG Export Plug-In . SVG Version: 6.00 Build 0)  -->
<svg version="1.1" id="Camada_1" xmlns="http://www.w3.org/2000/svg" xmlns:xlink="http://www.w3.org/1999/xlink" x="0px" y="0px"
	 viewBox="0 0 213 213" style="enable-background:new 0 0 213 213;" xml:space="preserve">
<style type="text/css">
	.st0{fill:#A50112;}
</style>
<g>
	<path class="st0" d="M175,89.6C175,89.6,175,89.5,175,89.6V70.2c0-0.7-0.3-1.4-0.9-1.9L157,54.8c-0.4-0.3-0.9-0.5-1.5-0.5h-11.9
		V37.5c0-5.8-4.7-10.5-10.5-10.5H56.9c-5.8,0-10.5,4.7-10.5,10.5v44v0.1v92.6h-5.1c-1.3,0-2.4,1.1-2.4,2.4v8.1
		c0,1.3,1.1,2.4,2.4,2.4h107.5c1.3,0,2.4-1.1,2.4-2.4c0,0,0,0,0,0v-8.1c0-1.3-1.1-2.4-2.4-2.4c0,0,0,0,0,0h-5.1v-44.4h3
		c0.5,0,0.9,0.4,0.9,0.9v21c0,7.6,6.1,13.7,13.7,13.7c7.6,0,13.7-6.1,13.7-13.7c0,0,0,0,0,0v-54c0,0,0,0,0,0V89.6z M170.3,92.5v2.3
		v0v0.5h-3.4v-3.4h3.4V92.5L170.3,92.5z M170.3,71.4v15.9h-3.4V74.1c0-0.7-0.4-1.4-0.9-1.9c-0.4-0.3-1-0.5-1.5-0.5h-11.6v-6.8
		c0,0,0-0.1,0-0.1v-5.7h1.8L170.3,71.4z M146.7,116.9h-3V81.5c0,0,0-0.1,0-0.1V67.2h4.5v6.9c0,1.3,1.1,2.4,2.4,2.4c0,0,0,0,0,0h2V80
		c0,3.5,2.9,6.4,6.4,6.4h3.3v6.1v0v2.3v0v56.9c0,0.5-0.4,0.9-0.9,0.9s-0.9-0.4-0.9-0.9c0,0,0,0,0,0v-21
		C160.4,123.1,154.2,116.9,146.7,116.9L146.7,116.9z M162.2,76.4v5.3h-3.3c-0.9,0-1.7-0.8-1.7-1.7v-3.6H162.2z M148.2,59.1v3.4h-4.5
		v-3.4H148.2z M56.9,31.7h76.4c3.2,0,5.7,2.6,5.7,5.7v44c0,3.2-2.6,5.7-5.7,5.7H56.9c-3.1,0-5.7-2.5-5.7-5.7V57.2c0,0,0,0,0-0.1
		V37.5C51.1,34.3,53.7,31.7,56.9,31.7L56.9,31.7z M146.4,182.3H43.7v-3.4h102.8V182.3z M51.1,174.2v-84c1.7,1.1,3.7,1.7,5.7,1.7
		h76.4c2,0,4-0.6,5.7-1.7v84H51.1z M161.3,160.8c-5,0-9-4-9-9v-21c0-3.1-2.5-5.6-5.6-5.6h-3v-3.4h3c5,0,9,4,9,9v21
		c0,3.1,2.5,5.6,5.6,5.6s5.6-2.5,5.6-5.6c0,0,0,0,0,0V100h3.4v51.7C170.3,156.7,166.3,160.7,161.3,160.8L161.3,160.8z"/>
	<path class="st0" d="M56.9,124.8c-1.3,0-2.4,1.1-2.4,2.4v9.5c0,1.3,1.1,2.4,2.4,2.4c1.3,0,2.4-1.1,2.4-2.4v-9.5
		C59.2,125.9,58.2,124.8,56.9,124.8C56.9,124.8,56.9,124.8,56.9,124.8z"/>
	<path class="st0" d="M65,75.7h60.2c1.3,0,2.4-1.1,2.4-2.4V45.6c0-1.3-1.1-2.4-2.4-2.4H65c-1.3,0-2.4,1.1-2.4,2.4v27.8
		C62.6,74.7,63.7,75.7,65,75.7z M67.3,47.9h55.4V71H67.3V47.9z"/>
	<path class="st0" d="M95.1,115.2c-11.7,0-21.1,9.5-21.1,21.1s9.5,21.1,21.1,21.1s21.1-9.5,21.1-21.1l0,0
		C116.2,124.7,106.7,115.2,95.1,115.2z M95.1,152.8c-9.1,0-16.4-7.3-16.4-16.4c0-9.1,7.3-16.4,16.4-16.4s16.4,7.3,16.4,16.4
		c0,0,0,0,0,0C111.5,145.4,104.1,152.8,95.1,152.8L95.1,152.8z"/>
	<path class="st0" d="M93.4,123.4c-0.9,0.9-8.8,9.2-8.8,16.2c0,5.8,4.7,10.5,10.5,10.5s10.5-4.7,10.5-10.5c0-7-7.9-15.3-8.8-16.2
		C95.8,122.5,94.3,122.5,93.4,123.4z M95.1,145.3c-3.2,0-5.7-2.6-5.7-5.7c0-3.4,3.3-8.1,5.7-11c2.4,2.9,5.7,7.6,5.7,11
		C100.8,142.8,98.2,145.3,95.1,145.3L95.1,145.3z"/>
</g>
</svg>
