<?xml version="1.0" encoding="utf-8"?>
<!-- Generator: Adobe Illustrator 21.0.0, SVG Export Plug-In . SVG Version: 6.00 Build 0)  -->
<svg version="1.1" id="Camada_1" xmlns="http://www.w3.org/2000/svg" xmlns:xlink="http://www.w3.org/1999/xlink" x="0px" y="0px"
	 viewBox="0 0 213 213" style="enable-background:new 0 0 213 213;" xml:space="preserve">
<style type="text/css">
	.st0{fill:#A50112;}
</style>
<g>
	<path class="st0" d="M166.7,173.3h-7.8v-36.1c3-1,5.2-3.8,5.2-7.2c0-4.2-3.4-7.6-7.6-7.6h-14.1l-6.7-44.8
		c-1.8-12.9-13.2-23.8-26.4-24.6v-7.1l15.4-11.5c1.4-1.1,2-2.9,1.4-4.6c-0.6-1.7-2.1-2.8-3.9-2.8H107c-1.3,0-2.3,1-2.3,2.3V53
		c-1.5,0.1-3,0.4-4.5,0.7c-1.3,0.3-2,1.6-1.7,2.8c0.3,1.3,1.6,2,2.8,1.7c1.9-0.4,3.8-0.7,5.7-0.7c5.8,0,11.5,2.1,15.9,5.9H91.1
		c1-0.8,2-1.6,3.1-2.3c1.1-0.7,1.4-2.1,0.8-3.2c-0.7-1.1-2.1-1.4-3.2-0.8c-7.3,4.5-12.2,12-13.5,20.4l-6.7,44.8H57.5
		c-4.2,0-7.6,3.4-7.6,7.6c0,3.4,2.2,6.2,5.2,7.2v36.1h-7.8c-2,0-3.6,1.6-3.6,3.6v3.1c0,3.9,2.7,7,6,7h114.5c3.3,0,6-3.2,6-7v-3.1
		C170.3,174.9,168.7,173.3,166.7,173.3L166.7,173.3z M109.3,31.7h11.1L109.3,40V31.7z M131.1,78.6l1.4,9h-4.1c-1.3,0-2.3,1-2.3,2.3
		c0,1.3,1,2.3,2.3,2.3h4.8l2.4,16.2h-4c-1.3,0-2.3,1-2.3,2.3c0,1.3,1,2.3,2.3,2.3h4.7l1.4,9.2h-13.9l-1.3-11.7c0,0,0,0,0,0
		l-3.5-32.1L131.1,78.6L131.1,78.6z M115.8,92.4l1.7,16.2H96.4l1.7-16.2L115.8,92.4z M98.7,87.7l1-9.1h14.7l1,9.1H98.7z
		 M118.1,113.3l1,9.1H94.9l1-9.1H118.1z M86.9,68.1h40.2c1.2,1.8,2.2,3.7,2.9,5.8h-13.6c0,0,0,0,0,0H97.6c0,0,0,0,0,0H84
		C84.7,71.8,85.7,69.9,86.9,68.1L86.9,68.1z M77.7,113.2h4.7c1.3,0,2.3-1,2.3-2.3c0-1.3-1-2.3-2.3-2.3h-4l2.4-16.2h4.7
		c1.3,0,2.3-1,2.3-2.3c0-1.3-1-2.3-2.3-2.3h-4l1.4-9h12.1l-3.5,32.1c0,0,0,0,0,0l-1.3,11.7H76.3L77.7,113.2z M54.6,129.9
		c0-1.6,1.3-2.9,2.9-2.9h99.1c1.6,0,2.9,1.3,2.9,2.9s-1.3,2.9-2.9,2.9h-27.8c-1.3,0-2.3,1-2.3,2.3c0,1.3,1,2.3,2.3,2.3h2.4v35.7
		h-10.4v-24.2c0-3.2-2.6-5.8-5.8-5.8H99.1c-3.2,0-5.8,2.6-5.8,5.8v24.2H82.9v-35.7h36.5c1.3,0,2.3-1,2.3-2.3c0-1.3-1-2.3-2.3-2.3
		H57.5C55.9,132.8,54.6,131.5,54.6,129.9z M154.2,137.5v35.7h-5.8v-35.7H154.2z M135.8,164.1v-5.8h7.9v5.8H135.8z M143.8,168.8v4.4
		h-7.9v-4.4H143.8z M135.8,153.7v-5.8h7.9v5.8H135.8z M135.8,143.3v-5.8h7.9v5.8H135.8z M116,149.1v24.2H98v-24.2
		c0-0.6,0.5-1.1,1.1-1.1h15.8C115.5,147.9,116,148.5,116,149.1L116,149.1z M70.2,164.1v-5.8h7.9v5.8H70.2z M78.2,168.8v4.4h-7.9
		v-4.4H78.2z M70.2,153.7v-5.8h7.9v5.8H70.2z M70.2,143.3v-5.8h7.9v5.8H70.2z M65.6,137.5v35.7h-5.8v-35.7H65.6z M165.6,180
		c0,1.4-0.8,2.3-1.3,2.3H49.7c-0.5,0-1.3-0.9-1.3-2.3v-2h117.2V180z"/>
</g>
</svg>
