<?xml version="1.0" encoding="utf-8"?>
<!-- Generator: Adobe Illustrator 21.0.0, SVG Export Plug-In . SVG Version: 6.00 Build 0)  -->
<svg version="1.1" id="Camada_1" xmlns="http://www.w3.org/2000/svg" xmlns:xlink="http://www.w3.org/1999/xlink" x="0px" y="0px"
	 viewBox="0 0 213 213" style="enable-background:new 0 0 213 213;" xml:space="preserve">
<style type="text/css">
	.st0{fill:#A50112;}
</style>
<g>
	<g>
		<g>
			<path class="st0" d="M108.4,70.1c-0.8-0.5-1.8-0.5-2.6-0.1l-4.6,2.3l-16.6-2.1L73.4,59l0.8-0.8c0,0,0.1-0.1,0.1-0.1
				c0.2-0.2,0.3-0.4,0.4-0.6c0-0.1,0.1-0.2,0.1-0.2c0.1-0.3,0.2-0.6,0.2-0.9V43c0-1.2-0.8-2.2-1.9-2.6l-18-5.1l-7.5-7.5
				c-0.5-0.5-1.2-0.8-1.9-0.8h-16c-1.5,0-2.7,1.2-2.7,2.7v32c0,0.3,0.1,0.6,0.2,0.9c0,0.1,0.1,0.2,0.1,0.2c0.1,0.2,0.2,0.4,0.4,0.6
				c0,0,0.1,0.1,0.1,0.1l18.7,18.7c0.5,0.5,1.2,0.8,1.9,0.8H100l4.6,9.2c0.5,0.9,1.4,1.5,2.4,1.5c0.2,0,0.4,0,0.6-0.1
				c1.2-0.3,2.1-1.4,2.1-2.6V72.3C109.7,71.4,109.2,70.6,108.4,70.1z M76,69.1l-11.3-1.4l4.9-4.9L76,69.1z M69.7,45v4.9l-6.8-6.8
				L69.7,45z M32.3,32.3h12.2l5.3,5.3L32.3,55.2V32.3z M33.4,61.7l20.2-20.2l14.9,14.9L48.3,76.6L33.4,61.7z M54.8,77.7l5.2-5.2
				l41.4,5.2c0.1,0,0.2,0,0.3,0L54.8,77.7L54.8,77.7z M104.3,79.7l-0.3-0.6c-0.5-0.9-1.4-1.5-2.4-1.5c0.4,0,0.8-0.1,1.2-0.3l1.5-0.7
				V79.7z"/>
		</g>
	</g>
	<g>
		<g>
			<path class="st0" d="M119.5,117.3l-10.2-17c-1-1.6-3.6-1.6-4.6,0l-10.2,17c-4,6.7-2.1,15.3,4.4,19.6c2.4,1.6,5.3,2.4,8.1,2.4
				c2.8,0,5.6-0.8,8.1-2.4C121.5,132.5,123.5,123.9,119.5,117.3z M112.1,132.4c-3.1,2.1-7.1,2.1-10.2,0c-4.1-2.7-5.3-8.2-2.8-12.4
				l7.9-13.2l7.9,13.2C117.4,124.2,116.2,129.7,112.1,132.4z"/>
		</g>
	</g>
	<g>
		<g>
			<path class="st0" d="M173.7,64.3c7.4,0,13.3-6,13.3-13.3c0-1.5-1.2-2.7-2.7-2.7h-10.7c-3,0-5.8,1-8,2.7V43h8
				c7.4,0,13.3-6,13.3-13.3c0-1.5-1.2-2.7-2.7-2.7h-10.7c-7.4,0-13.3,6-13.3,13.3v0.1c-2.2-1.7-5-2.7-8-2.7h-10.7
				c-1.5,0-2.7,1.2-2.7,2.7c0,7.4,6,13.3,13.3,13.3h8v8.1c-2.2-1.7-5-2.7-8-2.7h-10.7c-1.5,0-2.7,1.2-2.7,2.7
				c0,7.4,6,13.3,13.3,13.3h8v8.1c-2.2-1.7-5-2.7-8-2.7h-10.7c-1.5,0-2.7,1.2-2.7,2.7c0,7.4,6,13.3,13.3,13.3h8v8.1
				c-2.2-1.7-5-2.7-8-2.7h-10.7c-1.5,0-2.7,1.2-2.7,2.7c0,7.4,6,13.3,13.3,13.3h8v8.1c-2.2-1.7-5-2.7-8-2.7h-10.7
				c-1.5,0-2.7,1.2-2.7,2.7c0,7.4,6,13.3,13.3,13.3h8v8.1c-2.2-1.7-5-2.7-8-2.7h-10.7c-1.5,0-2.7,1.2-2.7,2.7
				c0,7.4,6,13.3,13.3,13.3h8v9.6l-11.8,11.8h-27.1l-11.8-11.8v-12.2h8c7.4,0,13.3-6,13.3-13.3c0-1.5-1.2-2.7-2.7-2.7h-10.7
				c-7.4,0-13.3,6-13.3,13.3v0.1c-2.2-1.7-5-2.7-8-2.7H85.7c-1.5,0-2.7,1.2-2.7,2.7c0,7.4,6,13.3,13.3,13.3h8v1.6l-11.8,11.8H65.4
				l-11.8-11.8v-4.2c0-7.4-6-13.3-13.3-13.3H29.7c-1.5,0-2.7,1.2-2.7,2.7c0,7.4,6,13.3,13.3,13.3h8v1.6l-11.8,11.8H27v5.3h10.7
				c0.7,0,1.4-0.3,1.9-0.8L51,174.8l11.4,11.4c0.5,0.5,1.2,0.8,1.9,0.8h29.3c0.7,0,1.4-0.3,1.9-0.8l11.4-11.4l11.4,11.4
				c0.5,0.5,1.2,0.8,1.9,0.8h29.3c0.7,0,1.4-0.3,1.9-0.8l11.4-11.4l11.4,11.4c0.5,0.5,1.2,0.8,1.9,0.8H187v-5.3h-9.6l-11.8-11.8
				v-20.2h8c7.4,0,13.3-6,13.3-13.3c0-1.5-1.2-2.7-2.7-2.7h-10.7c-3,0-5.8,1-8,2.7v-8.1h8c7.4,0,13.3-6,13.3-13.3
				c0-1.5-1.2-2.7-2.7-2.7h-10.7c-3,0-5.8,1-8,2.7V107h8c7.4,0,13.3-6,13.3-13.3c0-1.5-1.2-2.7-2.7-2.7h-10.7c-3,0-5.8,1-8,2.7v-8.1
				h8c7.4,0,13.3-6,13.3-13.3c0-1.5-1.2-2.7-2.7-2.7h-10.7c-3,0-5.8,1-8,2.7v-8.1H173.7z M173.7,53.7h7.5c-1.1,3.1-4.1,5.3-7.5,5.3
				h-7.5C167.2,55.9,170.2,53.7,173.7,53.7z M173.7,32.3h7.5c-1.1,3.1-4.1,5.3-7.5,5.3h-7.5C167.2,34.6,170.2,32.3,173.7,32.3z
				 M152.3,48.3c-3.5,0-6.4-2.2-7.5-5.3h7.5c3.5,0,6.4,2.2,7.5,5.3H152.3z M152.3,69.7c-3.5,0-6.4-2.2-7.5-5.3h7.5
				c3.5,0,6.4,2.2,7.5,5.3H152.3z M152.3,91c-3.5,0-6.4-2.2-7.5-5.3h7.5c3.5,0,6.4,2.2,7.5,5.3H152.3z M152.3,112.3
				c-3.5,0-6.4-2.2-7.5-5.3h7.5c3.5,0,6.4,2.2,7.5,5.3H152.3z M152.3,133.7c-3.5,0-6.4-2.2-7.5-5.3h7.5c3.5,0,6.4,2.2,7.5,5.3H152.3
				z M152.3,155c-3.5,0-6.4-2.2-7.5-5.3h7.5c3.5,0,6.4,2.2,7.5,5.3H152.3z M117.7,147h7.5c-1.1,3.1-4.1,5.3-7.5,5.3h-7.5
				C111.2,149.2,114.2,147,117.7,147z M96.3,163c-3.5,0-6.4-2.2-7.5-5.3h7.5c3.5,0,6.4,2.2,7.5,5.3H96.3z M40.3,163
				c-3.5,0-6.4-2.2-7.5-5.3h7.5c3.5,0,6.4,2.2,7.5,5.3H40.3z M173.7,139h7.5c-1.1,3.1-4.1,5.3-7.5,5.3h-7.5
				C167.2,141.2,170.2,139,173.7,139z M173.7,117.7h7.5c-1.1,3.1-4.1,5.3-7.5,5.3h-7.5C167.2,119.9,170.2,117.7,173.7,117.7z
				 M173.7,96.3h7.5c-1.1,3.1-4.1,5.3-7.5,5.3h-7.5C167.2,98.6,170.2,96.3,173.7,96.3z M173.7,75h7.5c-1.1,3.1-4.1,5.3-7.5,5.3h-7.5
				C167.2,77.2,170.2,75,173.7,75z"/>
		</g>
	</g>
</g>
</svg>
