<?xml version="1.0" encoding="utf-8"?>
<!-- Generator: Adobe Illustrator 21.0.0, SVG Export Plug-In . SVG Version: 6.00 Build 0)  -->
<svg version="1.1" id="Camada_1" xmlns="http://www.w3.org/2000/svg" xmlns:xlink="http://www.w3.org/1999/xlink" x="0px" y="0px"
	 viewBox="0 0 213 213" style="enable-background:new 0 0 213 213;" xml:space="preserve">
<style type="text/css">
	.st0{fill:#A50112;}
</style>
<g>
	<path class="st0" d="M98.3,140.4v-30.8c0-1.4-1.2-2.6-2.6-2.6c-15.8,0-18,27-18.1,28.2c-0.1,1,0.5,2,1.4,2.5l3.7,1.9v0.9l-2,20
		c-0.4,4.3,2.7,8,6.9,8.5c0.3,0,0.5,0,0.8,0h4.1c4.3,0,7.7-3.5,7.7-7.7c0-0.3,0-0.5,0-0.8L98.3,140.4z M83,133.9
		c0.4-3.6,1.2-7.2,2.4-10.7c2-5.8,4.6-9.4,7.8-10.6V138h-5.2c0-1-0.6-1.9-1.4-2.3L83,133.9z M94.5,162.9c-0.5,0.5-1.2,0.9-1.9,0.8
		h-4.1c-1.4,0-2.6-1.2-2.6-2.6c0-0.1,0-0.2,0-0.3l1.8-17.8h5.7l1.8,17.8C95.2,161.7,95,162.4,94.5,162.9L94.5,162.9z"/>
	<path class="st0" d="M180.8,27h-20.6c-1.4,0-2.6,1.2-2.6,2.6v2.6h-53.9c-2.3,0-4.6,0.6-6.7,1.7L71.8,47.6H41.5
		c-4.3,0-7.7,4.5-7.7,10.3c0,5.4,3,9.7,6.9,10.3L29,107.6c0,0,0,0.1,0,0.1c-0.3,1-0.4,2.1-0.4,3.1v73.6c0,1.4,1.2,2.6,2.6,2.6h116.1
		c1.4,0,2.6-1.2,2.6-2.6v-73.4c0-1.2-0.2-2.5-0.5-3.6l-10.8-36.6c7.3-0.1,13.3-5.7,13.8-12.9h5.2v5.2c0,1.4,1.2,2.6,2.6,2.6h20.6
		c1.4,0,2.6-1.2,2.6-2.6V29.6C183.4,28.2,182.3,27,180.8,27z M38.9,58c0-3.2,1.5-5.2,2.6-5.2h73.8l-10.3,10.3H41.5
		C40.4,63.1,38.9,61.1,38.9,58z M119.3,107.7c-0.3,1-0.4,2.1-0.4,3.1v71H33.7v-71c0-0.6,0.1-1.2,0.2-1.8l12-40.7h54.3
		c-3.2,5.4-1.4,12.4,4,15.6c4,2.4,9.1,2.1,12.7-0.8l12.4-9.7l-10.1,34.2C119.3,107.7,119.3,107.7,119.3,107.7z M134.4,175.2l6.7,6.7
		h-13.3L134.4,175.2z M144.4,108.9c0.2,0.7,0.3,1.4,0.3,2.2v67.1l-7.7-7.7v-55.7c0-1.4-1.2-2.6-2.6-2.6s-2.6,1.2-2.6,2.6v55.7
		l-7.7,7.7v-67.3c0-0.6,0.1-1.2,0.2-1.8l10.1-34.2L144.4,108.9z M157.6,52.8h-6.2c-2.3,0-4.1,1.8-4.1,4.1c0,4.8-3.9,8.8-8.8,8.8
		h-6.3c-0.8,0-1.6,0.3-2.2,0.8L113.8,79c-2.7,2.1-6.6,1.6-8.7-1.1c-1.9-2.5-1.7-6,0.5-8.2l17.7-17.7c1-1,1-2.6,0-3.6
		c-0.5-0.5-1.1-0.8-1.8-0.8H82.6l17-9.3c1.3-0.7,2.7-1.1,4.2-1.1h53.9V52.8z M178.3,60.5h-15.5V32.2h15.5V60.5z"/>
	<path class="st0" d="M75,109.6c0-1.4-1.2-2.6-2.6-2.6c-1.4,0-2.6,1.2-2.6,2.6v7.7h-5.2v-7.7c0-1.4-1.2-2.6-2.6-2.6
		c-1.4,0-2.6,1.2-2.6,2.6v7.7h-5.2v-7.7c0-1.4-1.2-2.6-2.6-2.6s-2.6,1.2-2.6,2.6v10.3h0c0,0.4,0.1,0.8,0.3,1.2l4.8,9.7l-2.1,29.9
		c-0.3,4.3,2.9,8,7.2,8.3c0.2,0,0.4,0,0.6,0h4.4c4.3,0,7.7-3.5,7.7-7.7c0-0.2,0-0.4,0-0.6l-2.1-29.9l4.8-9.7
		c0.2-0.4,0.3-0.8,0.3-1.2h0V109.6z M68.3,122.5l-2.6,5.2h-7.1l-2.6-5.2H68.3z M66.2,163c-0.5,0.5-1.2,0.8-1.9,0.8h-4.4
		c-1.4,0-2.6-1.2-2.6-2.6c0-0.1,0-0.1,0-0.2l2-28.2h5.5l2,28.2C67,161.7,66.7,162.4,66.2,163z"/>
</g>
</svg>
