<?xml version="1.0" encoding="utf-8"?>
<!-- Generator: Adobe Illustrator 21.0.0, SVG Export Plug-In . SVG Version: 6.00 Build 0)  -->
<svg version="1.1" id="Camada_1" xmlns="http://www.w3.org/2000/svg" xmlns:xlink="http://www.w3.org/1999/xlink" x="0px" y="0px"
	 viewBox="0 0 213 213" style="enable-background:new 0 0 213 213;" xml:space="preserve">
<style type="text/css">
	.st0{fill:#A50112;}
</style>
<g>
	<g>
		<g>
			<path class="st0" d="M129.5,46.5c-1.6-11.3-11.4-19.8-22.8-19.8c-7.3,0-14.3,3.5-18.6,9.5c-0.9,1.2-0.6,2.9,0.6,3.8
				c1.2,0.9,2.9,0.6,3.8-0.6c3.3-4.5,8.6-7.2,14.2-7.2c8.7,0,16.2,6.5,17.4,15.1c0.2,1.4,1.4,2.3,2.7,2.3c0.1,0,0.3,0,0.4,0
				C128.7,49.3,129.7,47.9,129.5,46.5z"/>
		</g>
	</g>
	<g>
		<g>
			<path class="st0" d="M168.7,76.8l-8.1-13.6c-0.5-0.8-1.4-1.3-2.3-1.3h-7.8c-1.5,0-2.7,1.2-2.7,2.7s1.2,2.7,2.7,2.7h6.3l4.9,8.1
				H51.8l4.9-8.1h2.9c1.5,0,2.7-1.2,2.7-2.7c0-1.5-1.2-2.7-2.7-2.7h-4.4c-1,0-1.8,0.5-2.3,1.3l-8.1,13.6c-0.5,0.8-0.5,1.9,0,2.7
				s1.4,1.4,2.4,1.4h119.3c1,0,1.9-0.5,2.4-1.4S169.2,77.7,168.7,76.8z"/>
		</g>
	</g>
	<g>
		<g>
			<path class="st0" d="M155.2,51.8c-0.4-0.6-1-1-1.7-1.2l-37-8.6c-0.7-0.2-1.4,0-2,0.3c-0.6,0.4-1,1-1.2,1.7l-2.8,11.9
				c-0.3,1.5,0.6,2.9,2,3.3c1.5,0.3,2.9-0.6,3.3-2l2.2-9.3l31.7,7.4l-5,21.3c-0.3,1.5,0.6,2.9,2,3.3c0.2,0,0.4,0.1,0.6,0.1
				c1.2,0,2.3-0.8,2.6-2.1l5.6-23.9C155.7,53.2,155.5,52.4,155.2,51.8z"/>
		</g>
	</g>
	<g>
		<g>
			<path class="st0" d="M108.1,58.2l-2.5-20.9c-0.1-0.7-0.4-1.4-1-1.8c-0.6-0.4-1.3-0.6-2-0.6l-45.4,5.4c-1.5,0.2-2.5,1.5-2.4,3
				L59,78.2c0.2,1.4,1.3,2.4,2.7,2.4c0.1,0,0.2,0,0.3,0c1.5-0.2,2.5-1.5,2.4-3l-3.8-32.2l40-4.7l2.2,18.2c0.2,1.5,1.5,2.5,3,2.4
				C107.2,61.1,108.3,59.7,108.1,58.2z"/>
		</g>
	</g>
	<g>
		<g>
			<path class="st0" d="M129.6,77.2l-5.4-22.4c-0.2-0.7-0.6-1.3-1.2-1.7c-0.6-0.4-1.3-0.5-2.1-0.3L77.2,63.3c-1.5,0.3-2.4,1.8-2,3.3
				l2.7,11.2c0.3,1.5,1.8,2.4,3.3,2c1.5-0.3,2.4-1.8,2-3.3l-2.1-8.6l38.4-9.2l4.7,19.7c0.3,1.2,1.4,2.1,2.6,2.1c0.2,0,0.4,0,0.6-0.1
				C129,80.1,129.9,78.6,129.6,77.2z"/>
		</g>
	</g>
	<g>
		<g>
			<path class="st0" d="M169.1,78.1c-0.1-1.4-1.3-2.6-2.7-2.6H47c-1.4,0-2.6,1.1-2.7,2.6l-5.4,105.8c0,0.7,0.2,1.5,0.7,2
				c0.5,0.5,1.2,0.8,2,0.8h130.2c0.7,0,1.5-0.3,2-0.8c0.5-0.5,0.8-1.3,0.7-2L169.1,78.1z M44.5,181.3l5.1-100.3h114.2l5.1,100.3
				H44.5z"/>
		</g>
	</g>
	<g>
		<g>
			<path class="st0" d="M127,86.4c-4.5,0-8.1,3.6-8.1,8.1c0,4.5,3.6,8.1,8.1,8.1s8.1-3.6,8.1-8.1C135.2,90,131.5,86.4,127,86.4z
				 M127,97.2c-1.5,0-2.7-1.2-2.7-2.7c0-1.5,1.2-2.7,2.7-2.7c1.5,0,2.7,1.2,2.7,2.7C129.7,96,128.5,97.2,127,97.2z"/>
		</g>
	</g>
	<g>
		<g>
			<path class="st0" d="M86.4,86.4c-4.5,0-8.1,3.6-8.1,8.1c0,4.5,3.6,8.1,8.1,8.1c4.5,0,8.1-3.6,8.1-8.1
				C94.5,90,90.8,86.4,86.4,86.4z M86.4,97.2c-1.5,0-2.7-1.2-2.7-2.7c0-1.5,1.2-2.7,2.7-2.7c1.5,0,2.7,1.2,2.7,2.7
				C89.1,96,87.8,97.2,86.4,97.2z"/>
		</g>
	</g>
	<g>
		<g>
			<path class="st0" d="M127,94.5h-0.2c-1.5,0-2.7,1.2-2.7,2.7c0,0.4,0.1,0.7,0.2,1v13.9c0,9.7-7.9,17.6-17.6,17.6
				s-17.6-7.9-17.6-17.6V97.2c0-1.5-1.2-2.7-2.7-2.7c-1.5,0-2.7,1.2-2.7,2.7v14.9c0,12.7,10.3,23.1,23.1,23.1s23.1-10.3,23.1-23.1
				V97.2C129.7,95.7,128.5,94.5,127,94.5z"/>
		</g>
	</g>
</g>
</svg>
