<?xml version="1.0" encoding="utf-8"?>
<!-- Generator: Adobe Illustrator 21.0.0, SVG Export Plug-In . SVG Version: 6.00 Build 0)  -->
<svg version="1.1" id="Camada_1" xmlns="http://www.w3.org/2000/svg" xmlns:xlink="http://www.w3.org/1999/xlink" x="0px" y="0px"
	 viewBox="0 0 213 213" style="enable-background:new 0 0 213 213;" xml:space="preserve">
<style type="text/css">
	.st0{fill:#A50112;}
</style>
<g>
	<g>
		<g>
			<path class="st0" d="M189.4,157.9h-3.2c8-7.8,8.2-20.7,0.4-28.7c-1.2-1.3-2.6-2.4-4.2-3.3c6.1-3.7,9.9-10.3,9.9-17.5
				c0-11.2-9.1-20.3-20.4-20.4h-26.2V67.7c0-1.6-1.3-2.9-2.9-2.9c-0.1,0-0.3,0-0.4,0l-34.5,5.3v-2.7c6.8-1.4,11.6-7.3,11.6-14.3
				c0-12.7-12-24.8-12.5-25.3c-1.1-1.1-3-1.1-4.1,0c-0.5,0.5-12.5,12.6-12.5,25.3c0,6.9,4.9,12.9,11.6,14.3v3.6l-35.4,5.4
				c-1.4,0.2-2.5,1.4-2.5,2.9v32.4c-2.1-2.3-4.6-4.3-7.3-5.8c-0.9-0.5-2-0.5-2.9,0c-8.6,5-14.4,13.7-15.7,23.5
				c-2-0.4-4.1-0.6-6.1-0.6c-1.3,0-2.6,0.1-3.8,0.3c-1,0.1-1.9,0.8-2.3,1.7c-5.9,13.9-1.3,30.1,11.1,38.7H17.7v5.8h6.9l5,10
				c0.5,1,1.5,1.6,2.6,1.6h110.5c1.6,0,2.9-1.3,2.9-2.9v-8.7h18.6l5,10c0.5,1,1.5,1.6,2.6,1.6h11.6c1.6,0,2.9-1.3,2.9-2.9v-8.7h2.9
				c1.6,0,2.9-1.3,2.9-2.9v-11.6C192.3,159.2,191,157.9,189.4,157.9z M186.5,143.4c0,8-6.5,14.5-14.5,14.5h-52.4
				c-8,0-14.5-6.5-14.5-14.5c0-8,6.5-14.5,14.5-14.5h37.8c4.8,0,8.7,3.9,8.7,8.7c0,4.8-3.9,8.7-8.7,8.7h-29.1
				c-1.6,0-2.9-1.3-2.9-2.9s1.3-2.9,2.9-2.9h20.4v-5.8h-20.4c-4.8,0-8.7,3.9-8.7,8.7c0,4.8,3.9,8.7,8.7,8.7h29.1
				c8,0,14.5-6.5,14.5-14.5c0-3.2-1.1-6.2-3-8.7h3C179.9,128.8,186.4,135.3,186.5,143.4z M163.2,93.9c4.8,0,8.7,3.9,8.7,8.7
				c0,4.8-3.9,8.7-8.7,8.7h-29.1c-1.6,0-2.9-1.3-2.9-2.9s1.3-2.9,2.9-2.9h20.4v-5.8h-20.4c-4.8,0-8.7,3.9-8.7,8.7
				c0,4.8,3.9,8.7,8.7,8.7h29.1c8,0,14.5-6.5,14.5-14.5c0-3-0.9-5.9-2.7-8.4c7.8,1.8,12.7,9.6,11,17.4c-1.5,6.6-7.3,11.3-14.1,11.3
				h-14.5h-26.2c-8,0-14.5-6.5-14.5-14.5s6.5-14.5,14.5-14.5L163.2,93.9L163.2,93.9z M96.3,53.2c0-7.4,5.6-15.2,8.7-18.9
				c3.1,3.7,8.7,11.5,8.7,18.9c0,3.7-2.3,7-5.8,8.2v-5.3h-5.8v5.3C98.6,60.1,96.3,56.9,96.3,53.2z M55.5,111.9
				c6.5,4.4,10.7,11.4,11.5,19.2c-4.3,1.7-8.2,4.4-11.5,7.8c-3.2-3.4-7.2-6-11.5-7.7C44.8,123.3,49,116.3,55.5,111.9z M70.1,136.1
				c2.8-1,5.7-1.5,8.7-1.5c0.5,0,0.9,0,1.4,0c4.8,13.6-2.4,28.6-16,33.4c-2.8,1-5.7,1.5-8.7,1.5c-0.5,0-0.9,0-1.4,0
				C49.3,155.9,56.5,140.9,70.1,136.1z M29.4,143.4c0-3,0.5-5.9,1.5-8.7c0.5,0,1,0,1.4,0c7.5,0,14.7,3.2,19.6,8.9
				c-4.8,7.3-6.3,16.3-4.2,24.8C36.8,165,29.4,154.8,29.4,143.4z M77,181.2H34.1l-2.9-5.8h48.8L77,181.2z M105,181.2H83.5l2.9-5.8
				h6.9v-5.8H73.9c12.4-8.7,17-24.8,11.1-38.7c-0.4-1-1.3-1.6-2.3-1.7c-3.3-0.4-6.7-0.3-9.9,0.3c-0.5-3.2-1.4-6.4-2.8-9.3h0.2V81.9
				l69.8-10.7v17h-8.7c-11.2,0-20.3,9.1-20.4,20.3c0,5.6,2.3,10.9,6.3,14.8c-11.2,1.3-19.1,11.4-17.8,22.6c0.5,4.6,2.7,8.9,6,12.2
				h-3.2c-1.6,0-2.9,1.3-2.9,2.9v11.6c0,1.6,1.3,2.9,2.9,2.9h2.9V181.2z M117.7,181.2h-6.9v-5.8h9.8L117.7,181.2z M139.9,181.2
				h-15.7l2.9-5.8h12.7V181.2z M180.6,181.2h-6.9l-2.9-5.8h9.8V181.2z M186.5,169.5H105v-5.8h81.5V169.5z"/>
		</g>
	</g>
	<g>
		<g>
			<rect x="75.9" y="88.1" class="st0" width="5.8" height="23.3"/>
		</g>
	</g>
	<g>
		<g>
			<rect x="75.9" y="117.2" class="st0" width="5.8" height="5.8"/>
		</g>
	</g>
</g>
</svg>
