<svg width="87" height="88" viewBox="0 0 87 88" fill="none" xmlns="http://www.w3.org/2000/svg">
<path d="M29.9047 28.4293H41.7175C41.9879 28.4293 42.2472 28.3219 42.4384 28.1307C42.6296 27.9395 42.737 27.6802 42.737 27.4098C42.737 27.1394 42.6296 26.8801 42.4384 26.6889C42.2472 26.4977 41.9879 26.3903 41.7175 26.3903H29.9047C29.6343 26.3903 29.375 26.4977 29.1838 26.6889C28.9926 26.8801 28.8852 27.1394 28.8852 27.4098C28.8852 27.6802 28.9926 27.9395 29.1838 28.1307C29.375 28.3219 29.6343 28.4293 29.9047 28.4293Z" fill="#A50112"/>
<path d="M50.7243 38.8391H53.9401C54.2105 38.8391 54.4698 38.7317 54.661 38.5405C54.8522 38.3493 54.9596 38.09 54.9596 37.8196C54.9596 37.5492 54.8522 37.2899 54.661 37.0987C54.4698 36.9075 54.2105 36.8 53.9401 36.8H50.7243C50.4539 36.8 50.1946 36.9075 50.0034 37.0987C49.8122 37.2899 49.7048 37.5492 49.7048 37.8196C49.7048 38.09 49.8122 38.3493 50.0034 38.5405C50.1946 38.7317 50.4539 38.8391 50.7243 38.8391Z" fill="#A50112"/>
<path d="M29.9047 34.634H41.7175C41.9879 34.634 42.2472 34.5266 42.4384 34.3354C42.6296 34.1442 42.737 33.8849 42.737 33.6145C42.737 33.3441 42.6296 33.0848 42.4384 32.8936C42.2472 32.7024 41.9879 32.595 41.7175 32.595H29.9047C29.6343 32.595 29.375 32.7024 29.1838 32.8936C28.9926 33.0848 28.8852 33.3441 28.8852 33.6145C28.8852 33.8849 28.9926 34.1442 29.1838 34.3354C29.375 34.5266 29.6343 34.634 29.9047 34.634Z" fill="#A50112"/>
<path d="M50.7243 32.7583H58.3405C58.6109 32.7583 58.8703 32.6509 59.0615 32.4597C59.2527 32.2685 59.3601 32.0092 59.3601 31.7388C59.3601 31.4684 59.2527 31.2091 59.0615 31.0179C58.8703 30.8267 58.6109 30.7192 58.3405 30.7192H50.7243C50.4539 30.7192 50.1946 30.8267 50.0034 31.0179C49.8122 31.2091 49.7048 31.4684 49.7048 31.7388C49.7048 32.0092 49.8122 32.2685 50.0034 32.4597C50.1946 32.6509 50.4539 32.7583 50.7243 32.7583Z" fill="#A50112"/>
<path d="M50.7243 26.6786H58.3405C58.6109 26.6786 58.8703 26.5712 59.0615 26.38C59.2527 26.1888 59.3601 25.9295 59.3601 25.6591C59.3601 25.3887 59.2527 25.1293 59.0615 24.9381C58.8703 24.7469 58.6109 24.6395 58.3405 24.6395H50.7243C50.4539 24.6395 50.1946 24.7469 50.0034 24.9381C49.8122 25.1293 49.7048 25.3887 49.7048 25.6591C49.7048 25.9295 49.8122 26.1888 50.0034 26.38C50.1946 26.5712 50.4539 26.6786 50.7243 26.6786Z" fill="#A50112"/>
<path d="M29.9047 22.2241H41.7175C41.9879 22.2241 42.2472 22.1167 42.4384 21.9255C42.6296 21.7343 42.737 21.475 42.737 21.2046C42.737 20.9342 42.6296 20.6749 42.4384 20.4837C42.2472 20.2925 41.9879 20.1851 41.7175 20.1851H29.9047C29.6343 20.1851 29.375 20.2925 29.1838 20.4837C28.9926 20.6749 28.8852 20.9342 28.8852 21.2046C28.8852 21.475 28.9926 21.7343 29.1838 21.9255C29.375 22.1167 29.6343 22.2241 29.9047 22.2241Z" fill="#A50112"/>
<path d="M65.4213 34.3926C65.2368 34.0013 64.9491 33.6677 64.5893 33.4275C64.2295 33.1873 63.811 33.0497 63.3788 33.0293V19.5073C63.3788 19.2369 63.2714 18.9775 63.0802 18.7863C62.889 18.5951 62.6297 18.4877 62.3593 18.4877H48.0009V14.231C48.0009 13.9606 47.8935 13.7013 47.7023 13.5101C47.5111 13.3189 47.2518 13.2115 46.9814 13.2115H44.8543V8.10007C44.8543 7.82967 44.7469 7.57035 44.5557 7.37915C44.3645 7.18795 44.1052 7.08054 43.8348 7.08054H37.5106V3.72815C37.5106 3.45775 37.4032 3.19843 37.212 3.00723C37.0208 2.81603 36.7615 2.70862 36.4911 2.70862C36.2207 2.70862 35.9614 2.81603 35.7702 3.00723C35.579 3.19843 35.4716 3.45775 35.4716 3.72815V7.08054H27.7884C27.518 7.08054 27.2587 7.18795 27.0675 7.37915C26.8763 7.57035 26.7688 7.82967 26.7688 8.10007V13.2115H24.6411C24.3707 13.2115 24.1114 13.3189 23.9202 13.5101C23.729 13.7013 23.6215 13.9606 23.6215 14.231V33.6701C23.5984 33.6759 23.575 33.6793 23.5521 33.6855C23.2386 33.7733 22.9465 33.9241 22.6935 34.1289C22.4406 34.3336 22.2321 34.5879 22.081 34.8762L9.36391 59.2236C9.0754 59.7708 9.0123 60.409 9.18811 61.0021C9.36391 61.5951 9.76468 62.0959 10.3048 62.3974L15.0274 65.0587C15.3822 65.2602 15.7831 65.3663 16.191 65.3668C16.4204 65.3665 16.6486 65.3333 16.8685 65.2681C17.1743 65.179 17.4589 65.0289 17.7051 64.8269C17.9513 64.6249 18.1541 64.3752 18.3013 64.0927L18.981 62.7993L20.9861 64.4715L17.9881 68.6327C17.351 69.5194 17.0916 70.6226 17.2668 71.7003C17.442 72.778 18.0375 73.7423 18.9227 74.3815L18.9298 74.3868C19.6276 74.8923 20.4672 75.1646 21.3288 75.1647C21.5529 75.1646 21.7767 75.1464 21.9979 75.1103C22.0887 75.0955 22.1781 75.0763 22.2669 75.0564C22.2756 75.1472 22.2863 75.2379 22.3009 75.3283C22.3856 75.8607 22.5748 76.3712 22.8577 76.8301C23.1406 77.2891 23.5115 77.6875 23.9492 78.0024L23.9561 78.0075L23.9655 78.0144C24.6631 78.5199 25.5026 78.7921 26.3641 78.7922C26.5883 78.7921 26.8122 78.774 27.0336 78.738C27.1243 78.7232 27.2137 78.704 27.3026 78.6841C27.3112 78.7748 27.3218 78.8656 27.3366 78.956C27.4222 79.4909 27.6131 80.0036 27.8982 80.4642C28.1834 80.9249 28.5571 81.3243 28.9977 81.6395L29.0035 81.6434C29.7022 82.1475 30.542 82.4183 31.4035 82.4174C31.718 82.4172 32.0316 82.3813 32.338 82.3104C32.3469 82.4016 32.3574 82.4929 32.372 82.5841C32.4576 83.1191 32.6485 83.6317 32.9336 84.0924C33.2187 84.553 33.5924 84.9525 34.033 85.2677L34.039 85.2718C34.736 85.7762 35.5744 86.0478 36.4348 86.048C36.659 86.048 36.8828 86.0298 37.104 85.9938C37.6383 85.9085 38.1504 85.718 38.6106 85.4335C39.0709 85.1489 39.4701 84.7759 39.7852 84.336L40.8233 82.8953L42.6953 84.3906C43.4932 85.0774 44.5113 85.4545 45.5641 85.4533C45.6733 85.4533 45.7833 85.4494 45.8932 85.4414C46.9574 85.3641 47.9576 84.9044 48.7092 84.147C49.4608 83.3897 49.9129 82.386 49.982 81.3213C50.4709 81.5021 50.9881 81.5944 51.5093 81.594C51.6186 81.594 51.7283 81.59 51.8384 81.5819C52.9026 81.5042 53.9028 81.0444 54.6546 80.2873C55.4064 79.5302 55.8593 78.5268 55.9296 77.4622C56.5637 77.6963 57.243 77.782 57.9154 77.7127C58.5877 77.6433 59.2352 77.4208 59.8082 77.0622C60.3811 76.7036 60.8642 76.2184 61.2204 75.6439C61.5766 75.0695 61.7963 74.421 61.8628 73.7484C62.4461 74.0225 63.0827 74.1644 63.7272 74.164C63.8387 74.164 63.951 74.1599 64.0635 74.1514C64.6451 74.1088 65.2126 73.9516 65.7332 73.6887C66.2538 73.4259 66.7173 73.0627 67.0969 72.6199L67.153 72.555C67.5242 72.1253 67.8071 71.6266 67.9856 71.0874C68.164 70.5483 68.2345 69.9793 68.1931 69.413C68.1516 68.8466 67.9989 68.2939 67.7438 67.7866C67.4887 67.2792 67.1361 66.8271 66.7063 66.456L65.4371 65.3603C66.3101 64.8049 67.0881 64.1127 67.7414 63.3104C67.9354 63.7094 68.2377 64.0457 68.6136 64.2812C68.9896 64.5167 69.4242 64.6417 69.8678 64.6421C70.1953 64.6416 70.5192 64.5739 70.8194 64.4431L75.7945 62.2882C76.0866 62.1616 76.3504 61.9777 76.5701 61.7474C76.7899 61.5171 76.9612 61.245 77.0739 60.9473C77.1865 60.6495 77.2383 60.3322 77.2261 60.0141C77.2139 59.696 77.138 59.3836 77.0028 59.0953L65.4213 34.3926ZM61.3398 20.527V33.6053L57.2858 35.2026C56.9829 35.3219 56.7077 35.5021 56.4773 35.7321C56.2468 35.962 56.066 36.2368 55.946 36.5394C55.8261 36.8421 55.7695 37.1661 55.7799 37.4915C55.7902 37.8169 55.8672 38.1367 56.0061 38.4311L56.6822 39.8648L56.2819 40.0347C54.3752 40.4331 53.0498 40.3778 51.0842 39.8245L48.0014 38.9579V20.5268L61.3398 20.527ZM28.8079 9.1196H42.8152V13.2115H28.8079V9.1196ZM45.9624 15.2506V38.3907C44.6393 38.0689 43.2532 38.1165 41.9553 38.5281L37.2641 40.0114C36.3128 40.3126 35.4319 40.8018 34.6734 41.4501C33.2887 41.0238 31.8293 40.8955 30.3914 41.0736L30.9877 39.9382C31.2678 39.4023 31.3339 38.7801 31.1724 38.1974C31.011 37.6147 30.6341 37.1151 30.1182 36.7999L25.661 34.0872V15.2506H45.9624ZM16.4962 63.1444C16.4751 63.1847 16.446 63.2203 16.4109 63.2491C16.3757 63.278 16.3351 63.2994 16.2915 63.3123C16.2479 63.3252 16.2021 63.3292 16.1569 63.324C16.1117 63.3189 16.068 63.3047 16.0284 63.2824L11.306 60.6211C11.2287 60.578 11.1714 60.5064 11.1463 60.4216C11.1211 60.3368 11.1301 60.2456 11.1714 60.1674L23.8885 35.8201C23.9099 35.7789 23.9396 35.7425 23.9758 35.7132C24.0119 35.684 24.0537 35.6625 24.0985 35.6502C24.1286 35.6419 24.1597 35.6376 24.191 35.6376C24.2529 35.6375 24.3137 35.6548 24.3663 35.6874L29.058 38.5421C29.1318 38.587 29.1856 38.6584 29.2087 38.7416C29.2317 38.8248 29.2222 38.9137 29.1821 38.9902L16.4962 63.1444ZM23.0236 72.2609C22.864 72.4824 22.6623 72.6704 22.43 72.814C22.1978 72.9576 21.9395 73.0541 21.67 73.0979C21.4004 73.1417 21.1249 73.1319 20.8591 73.0692C20.5933 73.0065 20.3425 72.8921 20.121 72.7324L20.1139 72.7273C19.6669 72.4045 19.3663 71.9176 19.2779 71.3734C19.1895 70.8292 19.3205 70.2722 19.6423 69.8245L24.3286 63.3199C24.4877 63.0978 24.6892 62.9094 24.9216 62.7658C25.154 62.6221 25.4126 62.5259 25.6824 62.4829C26.0889 62.4174 26.5057 62.4736 26.8803 62.6446C27.2548 62.8156 27.5704 63.0936 27.7873 63.4436C28.0041 63.7936 28.1125 64.2 28.0987 64.6115C28.085 65.0231 27.9497 65.4213 27.71 65.7561L23.0236 72.2609ZM28.0594 75.8887C27.7372 76.3351 27.2512 76.6356 26.7078 76.7246C26.1645 76.8135 25.6081 76.6835 25.1604 76.3631C25.1563 76.3602 25.1517 76.3567 25.1497 76.3555C24.928 76.1958 24.7399 75.9941 24.5963 75.7618C24.4526 75.5295 24.3561 75.2711 24.3123 75.0015C24.2685 74.7318 24.2782 74.4562 24.341 74.1904C24.4037 73.9245 24.5182 73.6736 24.678 73.452L28.0784 68.7323C28.2385 68.5103 28.4407 68.3221 28.6736 68.1783C28.9064 68.0345 29.1653 67.938 29.4354 67.8943C29.7055 67.8505 29.9816 67.8604 30.2479 67.9234C30.5143 67.9864 30.7656 68.1012 30.9875 68.2613C31.2094 68.4213 31.3977 68.6236 31.5415 68.8564C31.6852 69.0892 31.7818 69.3481 31.8255 69.6182C31.8692 69.8884 31.8593 70.1645 31.7964 70.4308C31.7334 70.6971 31.6186 70.9484 31.4585 71.1703L28.0594 75.8887ZM33.0952 79.5169C32.7725 79.9639 32.2855 80.2646 31.7413 80.353C31.1971 80.4414 30.6401 80.3103 30.1924 79.9884L30.1855 79.9835C29.738 79.6611 29.4369 79.1742 29.3484 78.6298C29.26 78.0854 29.3914 77.5282 29.7138 77.0807L32.0606 73.8236C32.2196 73.6019 32.4211 73.4138 32.6533 73.2704C32.8855 73.1269 33.1438 73.0309 33.4133 72.9878C33.5248 72.9697 33.6375 72.9605 33.7504 72.9604C34.1338 72.9607 34.5096 73.0666 34.8367 73.2667C35.1637 73.4667 35.4292 73.7531 35.6039 74.0943C35.7787 74.4355 35.8559 74.8183 35.8271 75.2006C35.7983 75.5829 35.6647 75.9498 35.4408 76.261L33.0952 79.5169ZM39.4234 81.351L38.1307 83.1451C37.8083 83.5925 37.3213 83.8936 36.7769 83.982C36.2326 84.0704 35.6754 83.939 35.2279 83.6166L35.2211 83.6117C34.7737 83.2892 34.4727 82.8023 34.3843 82.258C34.2958 81.7137 34.4272 81.1566 34.7494 80.709L36.0418 78.9148C36.201 78.6928 36.4025 78.5045 36.6348 78.3609C36.8672 78.2172 37.1257 78.121 37.3954 78.0778C37.5075 78.0596 37.6209 78.0505 37.7344 78.0504C38.1652 78.0497 38.5854 78.1847 38.9351 78.4363L38.9521 78.4484C39.1736 78.608 39.3616 78.8097 39.5052 79.042C39.6488 79.2742 39.7453 79.5325 39.7891 79.802C39.8329 80.0715 39.8232 80.3471 39.7605 80.6128C39.6978 80.8786 39.5834 81.1295 39.4238 81.351H39.4234ZM66.1595 69.5608C66.1822 69.8602 66.1453 70.161 66.051 70.446C65.9567 70.731 65.8068 70.9945 65.6099 71.2211L65.554 71.2859C65.3486 71.5259 65.0977 71.7229 64.8158 71.8656C64.5338 72.0082 64.2265 72.0937 63.9114 72.117C63.5992 72.1408 63.2853 72.1025 62.988 72.0042C62.6907 71.906 62.4159 71.7497 62.1794 71.5445L60.3668 69.978C60.3619 69.9739 60.3575 69.9693 60.3527 69.9652L55.5339 65.8021C55.433 65.712 55.3151 65.6428 55.1872 65.5986C55.0593 65.5545 54.9238 65.5362 54.7888 65.5449C54.6537 65.5537 54.5218 65.5892 54.4006 65.6494C54.2794 65.7097 54.1714 65.7935 54.083 65.8959C53.9945 65.9983 53.9273 66.1173 53.8853 66.246C53.8433 66.3746 53.8274 66.5104 53.8384 66.6452C53.8494 66.7801 53.8871 66.9115 53.9494 67.0316C54.0117 67.1518 54.0973 67.2583 54.2012 67.345C54.2012 67.345 56.654 69.4641 59.0295 71.5168C59.5007 71.9331 59.7882 72.5187 59.8296 73.1461C59.8711 73.7735 59.6629 74.3918 59.2506 74.8664C58.8383 75.3411 58.2551 75.6336 57.6282 75.6803C57.0012 75.7271 56.3811 75.5242 55.903 75.1159L51.0843 70.9528C50.8792 70.7803 50.6143 70.6955 50.3471 70.7168C50.0799 70.7381 49.8318 70.8637 49.6566 71.0666C49.4814 71.2694 49.3931 71.5331 49.4108 71.8006C49.4286 72.0681 49.5509 72.3178 49.7515 72.4957L53.0748 75.3674C53.3117 75.5721 53.506 75.8214 53.6466 76.1012C53.7872 76.381 53.8713 76.6858 53.8941 76.9981C53.9169 77.3104 53.8779 77.6241 53.7795 77.9213C53.6811 78.2186 53.525 78.4935 53.3203 78.7305C53.1156 78.9674 52.8663 79.1617 52.5865 79.3023C52.3067 79.4429 52.0019 79.527 51.6896 79.5498C51.3773 79.5726 51.0636 79.5336 50.7664 79.4352C50.4691 79.3367 50.1942 79.1807 49.9572 78.976L46.6337 76.1054C46.4689 75.9637 46.2633 75.8782 46.0466 75.8613C45.8299 75.8443 45.6135 75.8968 45.4286 76.011C45.2929 76.0955 45.1789 76.2107 45.0959 76.3473C45.0129 76.4839 44.9631 76.6382 44.9507 76.7975C44.9383 76.9569 44.9635 77.117 45.0244 77.2648C45.0852 77.4127 45.18 77.5441 45.301 77.6486L47.1287 79.2275C47.6072 79.6408 47.9018 80.2272 47.9479 80.8578C47.9939 81.4883 47.7876 82.1114 47.3743 82.5898C46.961 83.0683 46.3746 83.3629 45.744 83.409C45.1135 83.4551 44.4904 83.2487 44.012 82.8354C44.0021 82.8268 43.9921 82.8185 43.9819 82.8105L41.756 81.0322C41.9301 80.2474 41.871 79.4288 41.5861 78.6771C41.3011 77.9253 40.8026 77.2733 40.1519 76.8012L40.1349 76.7889C39.443 76.288 38.6116 76.0163 37.7574 76.0121C37.9019 75.408 37.9083 74.779 37.776 74.1721C37.6438 73.5652 37.3763 72.996 36.9936 72.5068C36.6108 72.0175 36.1226 71.621 35.5653 71.3467C35.008 71.0723 34.396 70.9272 33.7749 70.9222C33.9171 70.3295 33.9262 69.7126 33.8016 69.116C33.6769 68.5193 33.4216 67.9577 33.054 67.4715C32.6863 66.9853 32.2155 66.5866 31.6754 66.3041C31.1353 66.0216 30.5393 65.8623 29.9302 65.8377C30.2402 64.9026 30.2052 63.8875 29.8316 62.9761C29.4579 62.0646 28.7702 61.317 27.8931 60.8687C27.016 60.4204 26.0073 60.3009 25.0497 60.5319C24.0921 60.7629 23.2488 61.3292 22.6725 62.1281L22.1798 62.8129L19.9494 60.9529L29.1887 43.3614C30.4925 43.0087 31.8574 42.9433 33.189 43.1697C32.9769 43.5089 32.7921 43.8645 32.6364 44.2329L31.204 47.7259C30.838 48.6176 30.501 49.5325 30.2014 50.4446L28.771 54.8107C28.6925 55.0505 28.7057 55.3109 28.808 55.5415C28.9103 55.7721 29.0945 55.9566 29.325 56.0593L29.6332 56.1968C30.742 56.7039 31.9615 56.9209 33.1772 56.8275C34.3928 56.734 35.5648 56.3331 36.583 55.6624C37.4626 55.0814 38.2011 54.3111 38.7446 53.4078C39.288 52.5045 39.6226 51.4912 39.7239 50.4419C39.7312 50.3662 39.7377 50.29 39.7432 50.2132C39.8066 49.9087 40.2882 47.84 41.6914 47.7174L43.7342 48.2936C44.5149 48.5146 45.227 48.9297 45.8042 49.5L58.5993 62.1497C58.6163 62.1667 58.6333 62.1814 58.6503 62.1966L65.3732 68.0003C65.6009 68.1955 65.7876 68.434 65.9226 68.7018C66.0575 68.9697 66.138 69.2616 66.1595 69.5608ZM63.8028 63.9485L60.0095 60.6739L47.2385 48.0487C46.4158 47.2363 45.4009 46.6452 44.2883 46.3306L42.0898 45.7107C41.9986 45.6843 41.904 45.6714 41.809 45.6723C40.4064 45.6781 39.2076 46.471 38.4335 47.9056C38.0981 48.5346 37.8596 49.2106 37.7261 49.9107L37.6948 50.2468C37.622 50.9945 37.3829 51.7164 36.9951 52.3597C36.6073 53.0031 36.0805 53.5516 35.4534 53.965C34.8018 54.3867 34.0642 54.6572 33.2945 54.7568C32.5248 54.8565 31.7426 54.7827 31.0052 54.5409L32.1394 51.0793C32.4228 50.2127 32.7426 49.3452 33.0898 48.4993L34.5193 45.0159C34.824 44.2928 35.2823 43.6446 35.8624 43.1161C36.4425 42.5877 37.1305 42.1916 37.8788 41.9555L42.5697 40.4717C43.5765 40.1523 44.6549 40.1349 45.6715 40.4216L50.5312 41.7876C52.8636 42.443 54.505 42.5013 56.8027 42.0085C56.8665 41.9948 56.9288 41.9751 56.9888 41.9495L57.5514 41.7096L66.7419 61.1969C66.0266 62.3612 65.0115 63.3117 63.8028 63.949V63.9485ZM75.1667 60.2246C75.1507 60.2672 75.1263 60.3062 75.0949 60.3391C75.0635 60.372 75.0258 60.3982 74.984 60.4161L70.0097 62.5716C69.9288 62.6068 69.8374 62.6091 69.7549 62.5779C69.6724 62.5468 69.6053 62.4846 69.5679 62.4047L68.9061 61.0012C68.873 60.8435 68.8031 60.6958 68.7022 60.5702L57.8503 37.5606C57.8304 37.5186 57.8194 37.4729 57.818 37.4264C57.8165 37.3799 57.8246 37.3336 57.8417 37.2904C57.8589 37.2472 57.8847 37.2079 57.9176 37.1751C57.9505 37.1422 57.9898 37.1165 58.0331 37.0994L63.1432 35.0862C63.2236 35.0545 63.313 35.0547 63.3933 35.0866C63.4737 35.1186 63.5388 35.1799 63.5755 35.2582L75.1566 59.9602C75.1761 60.0014 75.187 60.0461 75.1888 60.0917C75.1905 60.1372 75.183 60.1826 75.1667 60.2251V60.2246Z" fill="#A50112"/>
</svg>
