<svg width="15" height="15" viewBox="0 0 15 15" fill="none" xmlns="http://www.w3.org/2000/svg">
<path fill-rule="evenodd" clip-rule="evenodd" d="M10.0358 0.3125C10.5646 0.3125 11.0227 0.521996 11.3902 0.89241L13.4575 2.95968C13.8282 3.33036 14.0358 3.78524 14.0358 4.3125C14.0358 4.83635 13.8298 5.37978 13.4575 5.75209L5.92597 13.28C5.40237 13.884 4.66015 14.2551 3.79217 14.3141H1.03577H0.0357666V13.3141L0.0390143 10.4772C0.102747 9.68832 0.469497 8.95479 1.01773 8.47241L8.5967 0.893509C8.96861 0.519684 9.51115 0.3125 10.0358 0.3125ZM2.38734 9.92857C2.18178 10.1104 2.05462 10.3647 2.03577 10.5577V12.315L3.72155 12.3165C3.98946 12.2976 4.23883 12.1729 4.46326 11.9179L8.84506 7.53609L6.81323 5.50426L2.38734 9.92857ZM8.2277 4.09029L10.2593 6.12187L12.0253 4.35589L9.994 2.32462L8.2277 4.09029Z" fill="#A50112"/>
</svg>
